{"total": 69, "perPage": 25, "currentPage": 3, "pages": 3, "items": [{"_id": "623e2ffdf0242b31ed0c1b3d", "from": "xdcbff4d797cc022e785dc0599720097cbdbcbc6740", "to": "xdc33aab4f3e5500c27bb643cf9e503ba0d8939a8c9", "transactionHash": "0x4ae2b915fe2574484552c9a71d943c5b9f2801175ebc0c2d3fb77d171df11100", "address": "xdc36726235dadbdb4658d33e62a249dca7c4b2bc68", "blockHash": "0x662dcf3bc2931be05cdcfa35015ff149ff5db1e8bef192455bc38cb2ee5f306e", "blockNumber": 42959269, "createdAt": "2022-03-25T21:11:25.926Z", "data": "0x000000000000000000000000000000000000000000000096e83ab8ea40a0bcea", "timestamp": "2022-03-25T21:11:12.000Z", "transactionIndex": 1, "updatedAt": "2022-03-25T21:11:25.926Z", "value": "2783745501738127375594", "valueNumber": 2783.7455017381276, "symbol": "XSP", "decimals": 18, "coingeckoID": "xswap-protocol", "fiatValue": 0.00074808, "blockTime": "2022-03-25T21:11:12.000Z"}, {"_id": "623e2ff1f0242b31ed0c14ee", "from": "xdcbff4d797cc022e785dc0599720097cbdbcbc6740", "to": "xdc33aab4f3e5500c27bb643cf9e503ba0d8939a8c9", "transactionHash": "0x99ed09e9d7d70028bc4d7d5ab43c55c819c950415d62dea99ea66f767b3542cf", "address": "xdc36726235dadbdb4658d33e62a249dca7c4b2bc68", "blockHash": "0x001df12727cf87ceec08a21b0e194e899262091df05863d33ff5e2d360c1055d", "blockNumber": 42959263, "createdAt": "2022-03-25T21:11:13.435Z", "data": "0x00000000000000000000000000000000000000000000000001ec0cf3f7f9acc2", "timestamp": "2022-03-25T21:11:00.000Z", "transactionIndex": 1, "updatedAt": "2022-03-25T21:11:13.435Z", "value": "138499930518564034", "valueNumber": 0.13849993051856405, "symbol": "XSP", "decimals": 18, "coingeckoID": "xswap-protocol", "fiatValue": 0.00074808, "blockTime": "2022-03-25T21:11:00.000Z"}, {"_id": "623e2c12f0242b31ed0afe24", "from": "xdcbff4d797cc022e785dc0599720097cbdbcbc6740", "to": "xdc33aab4f3e5500c27bb643cf9e503ba0d8939a8c9", "transactionHash": "0x08249cb75b2645b960fa4beb980140272a4bc27c1a59292654fbafcd1af7a45f", "address": "xdc36726235dadbdb4658d33e62a249dca7c4b2bc68", "blockHash": "0x2b314d19c7e605360e60483c95257c71d11c9a8058297fd187092fa7a51f5cbc", "blockNumber": 42958773, "createdAt": "2022-03-25T20:54:42.410Z", "data": "0x000000000000000000000000000000000000000000050dfe64edfa50857b0b14", "timestamp": "2022-03-25T20:54:28.000Z", "transactionIndex": 1, "updatedAt": "2022-03-25T20:54:42.410Z", "value": "6110712608089370504399636", "valueNumber": 6110712.608089371, "symbol": "XSP", "decimals": 18, "coingeckoID": "xswap-protocol", "fiatValue": 0.00074808, "blockTime": "2022-03-25T20:54:28.000Z"}, {"_id": "6238d5d3228740d01ffe17db", "from": "xdc33aab4f3e5500c27bb643cf9e503ba0d8939a8c9", "to": "xdcbff4d797cc022e785dc0599720097cbdbcbc6740", "transactionHash": "0x4124de3c055e3981bf0390303919739a43f5d7f54e9e4381921883e539d5ad4f", "address": "xdc36726235dadbdb4658d33e62a249dca7c4b2bc68", "blockHash": "0x899c25ff662ece62e9466e8d3a2bdd765aacf3813f7800c381ca1d3bdf7f0c15", "blockNumber": 42785690, "createdAt": "2022-03-21T19:45:23.629Z", "data": "0x00000000000000000000000000000000000000000004f841681f84d79fdb1d65", "timestamp": "2022-03-21T19:45:09.000Z", "transactionIndex": 1, "updatedAt": "2022-03-21T19:45:23.629Z", "value": "6008056707436545689984357", "valueNumber": 6008056.707436546, "symbol": "XSP", "decimals": 18, "coingeckoID": "xswap-protocol", "fiatValue": 0.00074808, "blockTime": "2022-03-21T19:45:09.000Z"}, {"_id": "6238d582228740d01ffdfdd0", "from": "xdcbff4d797cc022e785dc0599720097cbdbcbc6740", "to": "xdc33aab4f3e5500c27bb643cf9e503ba0d8939a8c9", "transactionHash": "0x2e881babd06782894400fd636e6b2328a5768d5eed31f727bbaf28ec957b403c", "address": "xdc36726235dadbdb4658d33e62a249dca7c4b2bc68", "blockHash": "0x03bacc3456d117da9ef70870adecfcad618f17419e167cec8d347b4bbde882cb", "blockNumber": 42785650, "createdAt": "2022-03-21T19:44:02.450Z", "data": "0x0000000000000000000000000000000000000000000476988ea5fd47402b1d65", "timestamp": "2022-03-21T19:43:49.000Z", "transactionIndex": 1, "updatedAt": "2022-03-21T19:44:02.450Z", "value": "5395756707436545689984357", "valueNumber": 5395756.707436546, "symbol": "XSP", "decimals": 18, "coingeckoID": "xswap-protocol", "fiatValue": 0.00074808, "blockTime": "2022-03-21T19:43:49.000Z"}, {"_id": "6238d515228740d01ffddadf", "from": "xdca6bbe4c8e521296c51833ecaf8f4d9a52efe79e5", "to": "xdc33aab4f3e5500c27bb643cf9e503ba0d8939a8c9", "transactionHash": "0xccbf991a207b9ffb7a725c73c9a5edb5e519da2a4c52995fa0faf2ddbf7f2da9", "address": "xdc36726235dadbdb4658d33e62a249dca7c4b2bc68", "blockHash": "0x8d45fe7c82f46793667cb950117acbf5c9d3c52288b236d9d2294194711950e6", "blockNumber": 42785595, "createdAt": "2022-03-21T19:42:13.367Z", "data": "0x0000000000000000000000000000000000000000000081a8d97987905fb00000", "timestamp": "2022-03-21T19:41:59.000Z", "transactionIndex": 1, "updatedAt": "2022-03-21T19:42:13.367Z", "value": "612300000000000000000000", "valueNumber": 612300, "symbol": "XSP", "decimals": 18, "coingeckoID": "xswap-protocol", "fiatValue": 0.00074808, "blockTime": "2022-03-21T19:41:59.000Z"}, {"_id": "622e7c43228740d01ff373b1", "from": "xdc33aab4f3e5500c27bb643cf9e503ba0d8939a8c9", "to": "xdcbff4d797cc022e785dc0599720097cbdbcbc6740", "transactionHash": "0xea77b7e8d94fbe2402dcc2de39a90ce41b90f41337d4708c523226acc3b9fb61", "address": "xdc36726235dadbdb4658d33e62a249dca7c4b2bc68", "blockHash": "0x52ea16bd5d3cc608ce3d9e5d6ddcb872304163835e596d3f446ca611f3f6b61f", "blockNumber": 42449278, "createdAt": "2022-03-13T23:20:35.973Z", "data": "0x00000000000000000000000000000000000000000004510205d2863b0f48380a", "timestamp": "2022-03-13T23:20:23.000Z", "transactionIndex": 1, "updatedAt": "2022-03-13T23:20:35.973Z", "value": "5218252276604408896698378", "valueNumber": 5218252.276604409, "symbol": "XSP", "decimals": 18, "coingeckoID": "xswap-protocol", "fiatValue": 0.00074808, "blockTime": "2022-03-13T23:20:23.000Z"}, {"_id": "622e7c2f228740d01ff37068", "from": "xdcbff4d797cc022e785dc0599720097cbdbcbc6740", "to": "xdc33aab4f3e5500c27bb643cf9e503ba0d8939a8c9", "transactionHash": "0xf6f4b3a36ae8d546e9cfcc0845bb10fccfacde0309b352425b7b6e9fc19ddacf", "address": "xdc36726235dadbdb4658d33e62a249dca7c4b2bc68", "blockHash": "0xe2e18ac87e5638ccd3894ecb5a56aac1398a0e2bfaf7abf3fac235a5cf7c87c9", "blockNumber": 42449267, "createdAt": "2022-03-13T23:20:15.185Z", "data": "0x000000000000000000000000000000000000000000039976793ccb2c3575380a", "timestamp": "2022-03-13T23:20:01.000Z", "transactionIndex": 1, "updatedAt": "2022-03-13T23:20:15.185Z", "value": "4351484982604408896698378", "valueNumber": 4351484.982604409, "symbol": "XSP", "decimals": 18, "coingeckoID": "xswap-protocol", "fiatValue": 0.00074808, "blockTime": "2022-03-13T23:20:01.000Z"}, {"_id": "622e7bc4228740d01ff3516a", "from": "xdca6bbe4c8e521296c51833ecaf8f4d9a52efe79e5", "to": "xdc33aab4f3e5500c27bb643cf9e503ba0d8939a8c9", "transactionHash": "0x3fefe8fbc9b9a46c008bd028fedc1d0bddeab25cad59a76ebd5ca247c58ab455", "address": "xdc36726235dadbdb4658d33e62a249dca7c4b2bc68", "blockHash": "0x4dcfbd0bb0800cbad4ed3bc5fbe2be2cf2f4a6d11324be1b98acdea2d5e2b43f", "blockNumber": 42449214, "createdAt": "2022-03-13T23:18:28.934Z", "data": "0x00000000000000000000000000000000000000000000b78b8c95bb0ed9d30000", "timestamp": "2022-03-13T23:18:15.000Z", "transactionIndex": 1, "updatedAt": "2022-03-13T23:18:28.934Z", "value": "866767294000000000000000", "valueNumber": 866767.294, "symbol": "XSP", "decimals": 18, "coingeckoID": "xswap-protocol", "fiatValue": 0.00074808, "blockTime": "2022-03-13T23:18:15.000Z"}, {"_id": "622d23fb228740d01f8ff0fb", "from": "xdc33aab4f3e5500c27bb643cf9e503ba0d8939a8c9", "to": "xdcbff4d797cc022e785dc0599720097cbdbcbc6740", "transactionHash": "0x70d9e74cb15f9c0d6e64f51b26e531217882ae311819af043bedaeb67367bf3d", "address": "xdc36726235dadbdb4658d33e62a249dca7c4b2bc68", "blockHash": "0x4b14bc26a842e4f03f0f1e3d40713d902876b3ed114a4b5043b72c1055731804", "blockNumber": 42405531, "createdAt": "2022-03-12T22:51:39.173Z", "data": "0x0000000000000000000000000000000000000000000395688f68f4c0413aee4d", "timestamp": "2022-03-12T22:51:26.000Z", "transactionIndex": 1, "updatedAt": "2022-03-12T22:51:39.173Z", "value": "4332338859953582021209677", "valueNumber": 4332338.859953582, "symbol": "XSP", "decimals": 18, "coingeckoID": "xswap-protocol", "fiatValue": 0.00074808, "blockTime": "2022-03-12T22:51:26.000Z"}, {"_id": "622d2347228740d01f8fbde3", "from": "xdc33aab4f3e5500c27bb643cf9e503ba0d8939a8c9", "to": "xdcc5e932128e4c655aea360bcb844ce2aa2c21ad4b", "transactionHash": "0x54d5235b8a07b0ec42933f3511a4f7e76e51d1c150abbd413c79e90a536a0e2b", "address": "xdc36726235dadbdb4658d33e62a249dca7c4b2bc68", "blockHash": "0x904991a51a512d0ed4f5c193d3c53d7a34f9230e21afabfeb3b440ec5d351d4c", "blockNumber": 42405441, "createdAt": "2022-03-12T22:48:39.003Z", "data": "0x00000000000000000000000000000000000000000000d2a8374fabb581c00000", "timestamp": "2022-03-12T22:48:26.000Z", "transactionIndex": 1, "updatedAt": "2022-03-12T22:48:39.003Z", "value": "994800000000000000000000", "valueNumber": 994800, "symbol": "XSP", "decimals": 18, "coingeckoID": "xswap-protocol", "fiatValue": 0.00074808, "blockTime": "2022-03-12T22:48:26.000Z"}, {"_id": "622d2319228740d01f8fadf1", "from": "xdcbff4d797cc022e785dc0599720097cbdbcbc6740", "to": "xdc33aab4f3e5500c27bb643cf9e503ba0d8939a8c9", "transactionHash": "0x58324bd2262be948cde320ba02e48006a4569349dc14110c61005ad359c18f65", "address": "xdc36726235dadbdb4658d33e62a249dca7c4b2bc68", "blockHash": "0xdd199993c3f26c126eb8c437b4573ca5e41d30b703d6bae1ca690007f398e7a1", "blockNumber": 42405418, "createdAt": "2022-03-12T22:47:53.940Z", "data": "0x000000000000000000000000000000000000000000046810c6b8a075c2faee4d", "timestamp": "2022-03-12T22:47:40.000Z", "transactionIndex": 1, "updatedAt": "2022-03-12T22:47:53.940Z", "value": "5327138859953582021209677", "valueNumber": 5327138.859953582, "symbol": "XSP", "decimals": 18, "coingeckoID": "xswap-protocol", "fiatValue": 0.00074808, "blockTime": "2022-03-12T22:47:40.000Z"}, {"_id": "621fec42228740d01fb51675", "from": "xdc33aab4f3e5500c27bb643cf9e503ba0d8939a8c9", "to": "xdcbff4d797cc022e785dc0599720097cbdbcbc6740", "transactionHash": "0xe42561131c1be3ba4c181e542d480ce5cbe4d1ab7bc0caff8fe809035fac7991", "address": "xdc36726235dadbdb4658d33e62a249dca7c4b2bc68", "blockHash": "0x2177c0e85e1da0d9cae8265adadc1e06208b0c35da31406a091bbe1a262605ff", "blockNumber": 41976917, "createdAt": "2022-03-02T22:14:26.420Z", "data": "0x00000000000000000000000000000000000000000004386bab368797154d85d5", "timestamp": "2022-03-02T22:14:10.000Z", "transactionIndex": 1, "updatedAt": "2022-03-02T22:14:26.420Z", "value": "5102141940312415948080597", "valueNumber": 5102141.940312416, "symbol": "XSP", "decimals": 18, "coingeckoID": "xswap-protocol", "fiatValue": 0.00074808, "blockTime": "2022-03-02T22:14:10.000Z"}, {"_id": "621febc1228740d01fb4e84d", "from": "xdcbff4d797cc022e785dc0599720097cbdbcbc6740", "to": "xdc33aab4f3e5500c27bb643cf9e503ba0d8939a8c9", "transactionHash": "0xe25bfc188eba2a870d6057e354e12d5782b8bc0bcd61263caebe9f1c36cf1d50", "address": "xdc36726235dadbdb4658d33e62a249dca7c4b2bc68", "blockHash": "0x964b15d9a08be6ef81b2d4ba2afad306d75109de9ea0d3b2b0c033abe53b349a", "blockNumber": 41976856, "createdAt": "2022-03-02T22:12:17.599Z", "data": "0x0000000000000000000000000000000000000000000000000000000000000000", "timestamp": "2022-03-02T22:12:04.000Z", "transactionIndex": 1, "updatedAt": "2022-03-02T22:12:17.599Z", "value": "0", "valueNumber": 0, "symbol": "XSP", "decimals": 18, "coingeckoID": "xswap-protocol", "fiatValue": 0.00074808, "blockTime": "2022-03-02T22:12:04.000Z"}, {"_id": "621feba3228740d01fb4e016", "from": "xdcbff4d797cc022e785dc0599720097cbdbcbc6740", "to": "xdc33aab4f3e5500c27bb643cf9e503ba0d8939a8c9", "transactionHash": "0xf0a88cfca1e38d318eab8abfe5a7dae6d783635c1c7659f8e8e127945a57cfb8", "address": "xdc36726235dadbdb4658d33e62a249dca7c4b2bc68", "blockHash": "0xe11230d0f79c65dd318e4684762a78c64279aa19bac6715110cc1e82dbd0f992", "blockNumber": 41976841, "createdAt": "2022-03-02T22:11:47.028Z", "data": "0x000000000000000000000000000000000000000000033cbdc33b19f914a685d5", "timestamp": "2022-03-02T22:11:34.000Z", "transactionIndex": 1, "updatedAt": "2022-03-02T22:11:47.028Z", "value": "3913619950312415948080597", "valueNumber": 3913619.950312416, "symbol": "XSP", "decimals": 18, "coingeckoID": "xswap-protocol", "fiatValue": 0.00074808, "blockTime": "2022-03-02T22:11:34.000Z"}, {"_id": "621feade228740d01fb4a92f", "from": "xdca6bbe4c8e521296c51833ecaf8f4d9a52efe79e5", "to": "xdc33aab4f3e5500c27bb643cf9e503ba0d8939a8c9", "transactionHash": "0x6560c635c77789f790dc095cb1c69f0fb1f8b66c6ec1d02f5ecad8d3ff627913", "address": "xdc36726235dadbdb4658d33e62a249dca7c4b2bc68", "blockHash": "0x8b332773b833d8256ee8a647a9648c6e9007ec3f722e5a6b16c85f285e5e6a03", "blockNumber": 41976743, "createdAt": "2022-03-02T22:08:30.860Z", "data": "0x00000000000000000000000000000000000000000000fbade7fb6d9e00a70000", "timestamp": "2022-03-02T22:08:18.000Z", "transactionIndex": 1, "updatedAt": "2022-03-02T22:08:30.860Z", "value": "1188521990000000000000000", "valueNumber": 1188521.99, "symbol": "XSP", "decimals": 18, "coingeckoID": "xswap-protocol", "fiatValue": 0.00074808, "blockTime": "2022-03-02T22:08:18.000Z"}, {"_id": "620c2215228740d01fb27833", "from": "xdc33aab4f3e5500c27bb643cf9e503ba0d8939a8c9", "to": "xdcbff4d797cc022e785dc0599720097cbdbcbc6740", "transactionHash": "0xcebcf8014cf23380be9af42f7c29b489cc73283ebe4437c3666d40f9fddb5dc7", "address": "xdc36726235dadbdb4658d33e62a249dca7c4b2bc68", "blockHash": "0x22d3bc2c1f5e3abff7103a2b005e1b97ef54e0b86a70523b9cbf3d3bb012aa1a", "blockNumber": 41336199, "createdAt": "2022-02-15T21:58:45.389Z", "data": "0x0000000000000000000000000000000000000000000308dba917799889760000", "timestamp": "2022-02-15T21:58:32.000Z", "transactionIndex": 1, "updatedAt": "2022-02-15T21:58:45.389Z", "value": "3668608412000000000000000", "valueNumber": 3668608.412, "symbol": "XSP", "decimals": 18, "coingeckoID": "xswap-protocol", "fiatValue": 0.00074808, "blockTime": "2022-02-15T21:58:32.000Z"}, {"_id": "620c1f8a228740d01fb1a3aa", "from": "xdca6bbe4c8e521296c51833ecaf8f4d9a52efe79e5", "to": "xdc33aab4f3e5500c27bb643cf9e503ba0d8939a8c9", "transactionHash": "0xcba262f6cb5be07bb2562af37e1ed2aa00013441c46d6f65d60d8eda2f3579a6", "address": "xdc36726235dadbdb4658d33e62a249dca7c4b2bc68", "blockHash": "0x270a66e0d52336208d4c1fa198bf081d1313537190fd21220212e590f488405c", "blockNumber": 41335876, "createdAt": "2022-02-15T21:47:54.721Z", "data": "0x00000000000000000000000000000000000000000001aadf8625d779ee420000", "timestamp": "2022-02-15T21:47:41.000Z", "transactionIndex": 1, "updatedAt": "2022-02-15T21:47:54.721Z", "value": "2015851412000000000000000", "valueNumber": 2015851.412, "symbol": "XSP", "decimals": 18, "coingeckoID": "xswap-protocol", "fiatValue": 0.00074808, "blockTime": "2022-02-15T21:47:41.000Z"}, {"_id": "620c1cbe228740d01fb0c8aa", "from": "xdca6bbe4c8e521296c51833ecaf8f4d9a52efe79e5", "to": "xdc33aab4f3e5500c27bb643cf9e503ba0d8939a8c9", "transactionHash": "0x2636f34f091a8d76d59d717cad73541f154286fe9e83099d39e9d780cc5fe4b1", "address": "xdc36726235dadbdb4658d33e62a249dca7c4b2bc68", "blockHash": "0x79fce7043e4f885eb6f55562266763a080cd1bdab2a76cbc603bf417c82f7b1f", "blockNumber": 41335520, "createdAt": "2022-02-15T21:35:58.448Z", "data": "0x000000000000000000000000000000000000000000015dfc22f1a21e9b340000", "timestamp": "2022-02-15T21:35:45.000Z", "transactionIndex": 1, "updatedAt": "2022-02-15T21:35:58.448Z", "value": "1652757000000000000000000", "valueNumber": 1652757, "symbol": "XSP", "decimals": 18, "coingeckoID": "xswap-protocol", "fiatValue": 0.00074808, "blockTime": "2022-02-15T21:35:45.000Z"}], "url": "https://xdc.blocksscan.io/api/token-txs/xrc20?holder=xdc33aab4f3e5500c27bb643cf9e503ba0d8939a8c9&page=3", "headers": "{\"Date\": \"Wed, 23 Nov 2022 00:18:57 GMT\", \"Content-Type\": \"application/json; charset=utf-8\", \"Content-Length\": \"3335\", \"Connection\": \"keep-alive\", \"Content-Encoding\": \"gzip\", \"ETag\": \"W/\\\"3a73-Bh/4227OWIdqMJn5buNs4UbZr4c\\\"\", \"Vary\": \"Accept-Encoding\", \"x-powered-by\": \"Express, ARR/3.0, ASP.NET\", \"access-control-allow-origin\": \"*\", \"CF-Cache-Status\": \"DYNAMIC\", \"Report-To\": \"{\\\"endpoints\\\":[{\\\"url\\\":\\\"https:\\\\/\\\\/a.nel.cloudflare.com\\\\/report\\\\/v3?s=tv1lnQ1CkOiLoCO%2B4FfrPHDf9z2sKPJOOxPObqQ0PYi%2FHLLaNFhWqVl32VeVJIKrOB9gjw6QhabGPSXZQ38UzizI4V3frx8seaHXBlxaqK4mphipsQPhnzOLTQYptKsMkiLQlw%3D%3D\\\"}],\\\"group\\\":\\\"cf-nel\\\",\\\"max_age\\\":604800}\", \"NEL\": \"{\\\"success_fraction\\\":0,\\\"report_to\\\":\\\"cf-nel\\\",\\\"max_age\\\":604800}\", \"Server\": \"cloudflare\", \"CF-RAY\": \"76e5bb04deb496bf-SJC\", \"alt-svc\": \"h3=\\\":443\\\"; ma=86400, h3-29=\\\":443\\\"; ma=86400\"}"}