{"total": 69, "perPage": 25, "currentPage": 2, "pages": 3, "items": [{"_id": "63223df0b6a7c1802279c3e8", "from": "xdcbff4d797cc022e785dc0599720097cbdbcbc6740", "to": "xdc33aab4f3e5500c27bb643cf9e503ba0d8939a8c9", "transactionHash": "0x1f7cb62cf74ccd0bd6a0592c2199c74d3da9ff95c256428df38bacbdb6d723bf", "address": "xdc36726235dadbdb4658d33e62a249dca7c4b2bc68", "blockHash": "0xcd160ec988876c6e64a587efae1b7164d1bcb68407861666bd3634f7d2766abf", "blockNumber": 50344308, "createdAt": "2022-09-14T20:47:44.094Z", "data": "0x00000000000000000000000000000000000000000000026974f53c6e8ef0a16c", "timestamp": "2022-09-14T20:47:31.000Z", "transactionIndex": 1, "updatedAt": "2022-09-14T20:47:44.094Z", "value": "11390068802202029302124", "valueNumber": 11390.06880220203, "symbol": "XSP", "decimals": 18, "coingeckoID": "xswap-protocol", "fiatValue": 0.00074808, "blockTime": "2022-09-14T20:47:31.000Z"}, {"_id": "6320fbec63b3788fec9be5d9", "from": "xdcbff4d797cc022e785dc0599720097cbdbcbc6740", "to": "xdc33aab4f3e5500c27bb643cf9e503ba0d8939a8c9", "transactionHash": "0x1e619c3c2847be1e92fd7691cb64bb9f5a2c99dee613585583eea38ab8ab9fd7", "address": "xdc36726235dadbdb4658d33e62a249dca7c4b2bc68", "blockHash": "0x4b792045c86b7bcb48e29757f138d330d7bff8a22aa368f82f934e10c8825b09", "blockNumber": 50303538, "createdAt": "2022-09-13T21:53:48.487Z", "data": "0x0000000000000000000000000000000000000000000011f238b68b20d0ca70c1", "timestamp": "2022-09-13T21:53:34.000Z", "transactionIndex": 1, "updatedAt": "2022-09-13T21:53:48.487Z", "value": "84748428881306623570113", "valueNumber": 84748.42888130662, "symbol": "XSP", "decimals": 18, "coingeckoID": "xswap-protocol", "fiatValue": 0.00074808, "blockTime": "2022-09-13T21:53:34.000Z"}, {"_id": "6320fbebb6a7c18022400c5e", "from": "xdcbff4d797cc022e785dc0599720097cbdbcbc6740", "to": "xdc33aab4f3e5500c27bb643cf9e503ba0d8939a8c9", "transactionHash": "0x1e619c3c2847be1e92fd7691cb64bb9f5a2c99dee613585583eea38ab8ab9fd7", "address": "xdc36726235dadbdb4658d33e62a249dca7c4b2bc68", "blockHash": "0x4b792045c86b7bcb48e29757f138d330d7bff8a22aa368f82f934e10c8825b09", "blockNumber": 50303538, "createdAt": "2022-09-13T21:53:47.811Z", "data": "0x0000000000000000000000000000000000000000000011f238b68b20d0ca70c1", "timestamp": "2022-09-13T21:53:34.000Z", "transactionIndex": 1, "updatedAt": "2022-09-13T21:53:47.811Z", "value": "84748428881306623570113", "valueNumber": 84748.42888130662, "symbol": "XSP", "decimals": 18, "coingeckoID": "xswap-protocol", "fiatValue": 0.00074808, "blockTime": "2022-09-13T21:53:34.000Z"}, {"_id": "6317a9c663b3788fecbf5a0a", "from": "xdc33aab4f3e5500c27bb643cf9e503ba0d8939a8c9", "to": "xdcbff4d797cc022e785dc0599720097cbdbcbc6740", "transactionHash": "0x3eb30e1eafee0b2bf60613de2d5dd2c72f09fe74a7edfafd050895484e9302d7", "address": "xdc36726235dadbdb4658d33e62a249dca7c4b2bc68", "blockHash": "0x37c454db7206feecb8725c55a77925bcdec5f02a51770a52944106fe2d0aa7be", "blockNumber": 49999443, "createdAt": "2022-09-06T20:12:11.731Z", "data": "0x00000000000000000000000000000000000000000003ad08e4bb22e280efca64", "timestamp": "2022-09-06T19:26:41.000Z", "transactionIndex": 1, "updatedAt": "2022-09-06T20:12:11.731Z", "value": "4443910916138543336114788", "valueNumber": 4443910.916138544, "symbol": "XSP", "decimals": 18, "coingeckoID": "xswap-protocol", "fiatValue": 0.00074808, "blockTime": "2022-09-06T19:26:41.000Z"}, {"_id": "63179efeb6a7c180226f13ea", "from": "xdc33aab4f3e5500c27bb643cf9e503ba0d8939a8c9", "to": "xdcbff4d797cc022e785dc0599720097cbdbcbc6740", "transactionHash": "0x3eb30e1eafee0b2bf60613de2d5dd2c72f09fe74a7edfafd050895484e9302d7", "address": "xdc36726235dadbdb4658d33e62a249dca7c4b2bc68", "blockHash": "0x37c454db7206feecb8725c55a77925bcdec5f02a51770a52944106fe2d0aa7be", "blockNumber": 49999443, "createdAt": "2022-09-06T19:26:54.402Z", "data": "0x00000000000000000000000000000000000000000003ad08e4bb22e280efca64", "timestamp": "2022-09-06T19:26:41.000Z", "transactionIndex": 1, "updatedAt": "2022-09-06T19:26:54.402Z", "value": "4443910916138543336114788", "valueNumber": 4443910.916138544, "symbol": "XSP", "decimals": 18, "coingeckoID": "xswap-protocol", "fiatValue": 0.00074808, "blockTime": "2022-09-06T19:26:41.000Z"}, {"_id": "6317a9c863b3788fecbf5e6c", "from": "xdca6bbe4c8e521296c51833ecaf8f4d9a52efe79e5", "to": "xdc33aab4f3e5500c27bb643cf9e503ba0d8939a8c9", "transactionHash": "0x7f187ec3a3a7689a8f21935ff04e77b775420e60d9dbeb471b0c3422c20d3e2d", "address": "xdc36726235dadbdb4658d33e62a249dca7c4b2bc68", "blockHash": "0xb687d85f643073688de8f5a924f816e85d0f78076d2c7aa6f67484b78d635c23", "blockNumber": 49999409, "createdAt": "2022-09-06T20:12:12.561Z", "data": "0x0000000000000000000000000000000000000000000422ca8b0a00a425000000", "timestamp": "2022-09-06T19:25:33.000Z", "transactionIndex": 1, "updatedAt": "2022-09-06T20:12:12.561Z", "value": "5000000000000000000000000", "valueNumber": 5000000, "symbol": "XSP", "decimals": 18, "coingeckoID": "xswap-protocol", "fiatValue": 0.00074808, "blockTime": "2022-09-06T19:25:33.000Z"}, {"_id": "63179eb9b6a7c180226efa15", "from": "xdca6bbe4c8e521296c51833ecaf8f4d9a52efe79e5", "to": "xdc33aab4f3e5500c27bb643cf9e503ba0d8939a8c9", "transactionHash": "0x7f187ec3a3a7689a8f21935ff04e77b775420e60d9dbeb471b0c3422c20d3e2d", "address": "xdc36726235dadbdb4658d33e62a249dca7c4b2bc68", "blockHash": "0xb687d85f643073688de8f5a924f816e85d0f78076d2c7aa6f67484b78d635c23", "blockNumber": 49999409, "createdAt": "2022-09-06T19:25:45.475Z", "data": "0x0000000000000000000000000000000000000000000422ca8b0a00a425000000", "timestamp": "2022-09-06T19:25:33.000Z", "transactionIndex": 1, "updatedAt": "2022-09-06T19:25:45.475Z", "value": "5000000000000000000000000", "valueNumber": 5000000, "symbol": "XSP", "decimals": 18, "coingeckoID": "xswap-protocol", "fiatValue": 0.00074808, "blockTime": "2022-09-06T19:25:33.000Z"}, {"_id": "6317a8bc63b3788fecbcb629", "from": "xdcbff4d797cc022e785dc0599720097cbdbcbc6740", "to": "xdc33aab4f3e5500c27bb643cf9e503ba0d8939a8c9", "transactionHash": "0x99dc149cf7cfecd7e6dadcb5ce894f933b38d02c8fb1882d765a010678a60311", "address": "xdc36726235dadbdb4658d33e62a249dca7c4b2bc68", "blockHash": "0x28c0d04dc69eb20db08015029240f4775cfeb73a8d1b035c253070b531f3d72f", "blockNumber": 49997881, "createdAt": "2022-09-06T20:06:49.240Z", "data": "0x000000000000000000000000000000000000000000009a04ac11b30d52646ca5", "timestamp": "2022-09-06T18:31:37.000Z", "transactionIndex": 1, "updatedAt": "2022-09-06T20:06:49.240Z", "value": "727330624226339127061669", "valueNumber": 727330.6242263392, "symbol": "XSP", "decimals": 18, "coingeckoID": "xswap-protocol", "fiatValue": 0.00074808, "blockTime": "2022-09-06T18:31:37.000Z"}, {"_id": "63179220b6a7c180226950bd", "from": "xdcbff4d797cc022e785dc0599720097cbdbcbc6740", "to": "xdc33aab4f3e5500c27bb643cf9e503ba0d8939a8c9", "transactionHash": "0x99dc149cf7cfecd7e6dadcb5ce894f933b38d02c8fb1882d765a010678a60311", "address": "xdc36726235dadbdb4658d33e62a249dca7c4b2bc68", "blockHash": "0x28c0d04dc69eb20db08015029240f4775cfeb73a8d1b035c253070b531f3d72f", "blockNumber": 49997881, "createdAt": "2022-09-06T18:32:00.633Z", "data": "0x000000000000000000000000000000000000000000009a04ac11b30d52646ca5", "timestamp": "2022-09-06T18:31:37.000Z", "transactionIndex": 1, "updatedAt": "2022-09-06T18:32:00.633Z", "value": "727330624226339127061669", "valueNumber": 727330.6242263392, "symbol": "XSP", "decimals": 18, "coingeckoID": "xswap-protocol", "fiatValue": 0.00074808, "blockTime": "2022-09-06T18:31:37.000Z"}, {"_id": "6317a7cc63b3788fecbac5a5", "from": "xdca6bbe4c8e521296c51833ecaf8f4d9a52efe79e5", "to": "xdc33aab4f3e5500c27bb643cf9e503ba0d8939a8c9", "transactionHash": "0xd8369d24cb68a07c81a151f33f894928e6d3b510e32a39e931e786bd50025c52", "address": "xdc36726235dadbdb4658d33e62a249dca7c4b2bc68", "blockHash": "0xb71d595250e933e3ad509c38228869c0f211fdfb9e50dd4d96487f4817fc23b8", "blockNumber": 49997796, "createdAt": "2022-09-06T20:01:39.498Z", "data": "0x00000000000000000000000000000000000000000002e3ecb0c4e574fcec0000", "timestamp": "2022-09-06T18:27:35.000Z", "transactionIndex": 1, "updatedAt": "2022-09-06T20:01:39.498Z", "value": "3494195000000000000000000", "valueNumber": 3494195, "symbol": "XSP", "decimals": 18, "coingeckoID": "xswap-protocol", "fiatValue": 0.00074808, "blockTime": "2022-09-06T18:27:35.000Z"}, {"_id": "6317914cb6a7c180226930b8", "from": "xdca6bbe4c8e521296c51833ecaf8f4d9a52efe79e5", "to": "xdc33aab4f3e5500c27bb643cf9e503ba0d8939a8c9", "transactionHash": "0xd8369d24cb68a07c81a151f33f894928e6d3b510e32a39e931e786bd50025c52", "address": "xdc36726235dadbdb4658d33e62a249dca7c4b2bc68", "blockHash": "0xfdc3642b5185e941bccde3bf75f8fa1d8671bd6f47dab1da53a2340c828e1709", "blockNumber": 49997796, "createdAt": "2022-09-06T18:28:28.808Z", "data": "0x00000000000000000000000000000000000000000002e3ecb0c4e574fcec0000", "timestamp": "2022-09-06T18:27:35.000Z", "transactionIndex": 1, "updatedAt": "2022-09-06T18:28:28.808Z", "value": "3494195000000000000000000", "valueNumber": 3494195, "symbol": "XSP", "decimals": 18, "coingeckoID": "xswap-protocol", "fiatValue": 0.00074808, "blockTime": "2022-09-06T18:27:35.000Z"}, {"_id": "6297a0a15308a7396a369ef7", "from": "xdc33aab4f3e5500c27bb643cf9e503ba0d8939a8c9", "to": "xdca47bd99417063117e2e0e1b0a1e77ac6478725d7", "transactionHash": "0xecf0103ef4c060d53c2b81c8209048708effd8c94adef069a1019745b00c7450", "address": "xdc36726235dadbdb4658d33e62a249dca7c4b2bc68", "blockHash": "0xba65ad94fc6eaad9b39fe6c4c9f2ba300c43f826192a6af3a5feaf69e6cf4642", "blockNumber": 45859477, "createdAt": "2022-06-01T17:23:45.209Z", "data": "0x00000000000000000000000000000000000000000000818826cf384bab530000", "timestamp": "2022-06-01T17:23:32.000Z", "transactionIndex": 1, "updatedAt": "2022-06-01T17:23:45.209Z", "value": "611696830000000000000000", "valueNumber": 611696.83, "symbol": "XSP", "decimals": 18, "coingeckoID": "xswap-protocol", "fiatValue": 0.00074808, "blockTime": "2022-06-01T17:23:32.000Z"}, {"_id": "62979b5c5308a7396a338a94", "from": "xdcbff4d797cc022e785dc0599720097cbdbcbc6740", "to": "xdc33aab4f3e5500c27bb643cf9e503ba0d8939a8c9", "transactionHash": "0xfe0f4d38b046967c912383518c95239f782085e69dcddd10cc2934456224213f", "address": "xdc36726235dadbdb4658d33e62a249dca7c4b2bc68", "blockHash": "0x716ae250504bb8fd2aade64124a152eb832a5d4daa43f186444766d1f9f7fb67", "blockNumber": 45858802, "createdAt": "2022-06-01T17:01:16.171Z", "data": "0x00000000000000000000000000000000000000000000260f9efad6fc25385dbb", "timestamp": "2022-06-01T17:01:02.000Z", "transactionIndex": 1, "updatedAt": "2022-06-01T17:01:16.171Z", "value": "179738083215132776226235", "valueNumber": 179738.08321513276, "symbol": "XSP", "decimals": 18, "coingeckoID": "xswap-protocol", "fiatValue": 0.00074808, "blockTime": "2022-06-01T17:01:02.000Z"}, {"_id": "62979b005308a7396a33680f", "from": "xdca6bbe4c8e521296c51833ecaf8f4d9a52efe79e5", "to": "xdc33aab4f3e5500c27bb643cf9e503ba0d8939a8c9", "transactionHash": "0xb0f576bae83c6d83d363c2f3a2248467a2ce2733f819f7095aa35698a0893b0d", "address": "xdc36726235dadbdb4658d33e62a249dca7c4b2bc68", "blockHash": "0x8537a353a16abe2e03b755a93aef61b26ce0b77c74a67c178db52888d708d044", "blockNumber": 45858756, "createdAt": "2022-06-01T16:59:44.408Z", "data": "0x000000000000000000000000000000000000000000005b7887dfcd74f5230000", "timestamp": "2022-06-01T16:59:30.000Z", "transactionIndex": 1, "updatedAt": "2022-06-01T16:59:44.408Z", "value": "431958750000000000000000", "valueNumber": 431958.75, "symbol": "XSP", "decimals": 18, "coingeckoID": "xswap-protocol", "fiatValue": 0.00074808, "blockTime": "2022-06-01T16:59:30.000Z"}, {"_id": "6277fc028fe7a81232e97b79", "from": "xdc33aab4f3e5500c27bb643cf9e503ba0d8939a8c9", "to": "xdcbff4d797cc022e785dc0599720097cbdbcbc6740", "transactionHash": "0x531bd807cf01eb28933a4f9546c8018d5fa34fe35ef9ab450ebf15a4451d51d6", "address": "xdc36726235dadbdb4658d33e62a249dca7c4b2bc68", "blockHash": "0x687d8cbba6c3618fb5c744a23264871a2c14b2684cb68abd300b20bad679b33f", "blockNumber": 44833704, "createdAt": "2022-05-08T17:21:06.828Z", "data": "0x0000000000000000000000000000000000000000000632c9b8b1a8d977770531", "timestamp": "2022-05-08T17:20:54.000Z", "transactionIndex": 1, "updatedAt": "2022-05-08T17:21:06.828Z", "value": "7493394345994098750981425", "valueNumber": 7493394.345994099, "symbol": "XSP", "decimals": 18, "coingeckoID": "xswap-protocol", "fiatValue": 0.00074808, "blockTime": "2022-05-08T17:20:54.000Z"}, {"_id": "6277fbf78fe7a81232e96fb8", "from": "xdcbff4d797cc022e785dc0599720097cbdbcbc6740", "to": "xdc33aab4f3e5500c27bb643cf9e503ba0d8939a8c9", "transactionHash": "0xa1a4a48d98bd44939999a1d6323583e095f5fe6382443f0cff1d579c0d41d752", "address": "xdc36726235dadbdb4658d33e62a249dca7c4b2bc68", "blockHash": "0x5e4b7c6450b40c5c95e217ed9d894298160963d37a3d7c481bf0e074f3315c51", "blockNumber": 44833697, "createdAt": "2022-05-08T17:20:54.775Z", "data": "0x00000000000000000000000000000000000000000005fde1e111560d3c9bc531", "timestamp": "2022-05-08T17:20:40.000Z", "transactionIndex": 1, "updatedAt": "2022-05-08T17:20:54.775Z", "value": "7243554553494098750981425", "valueNumber": 7243554.553494099, "symbol": "XSP", "decimals": 18, "coingeckoID": "xswap-protocol", "fiatValue": 0.00074808, "blockTime": "2022-05-08T17:20:40.000Z"}, {"_id": "6277fb5d8fe7a81232e8e3d7", "from": "xdca6bbe4c8e521296c51833ecaf8f4d9a52efe79e5", "to": "xdc33aab4f3e5500c27bb643cf9e503ba0d8939a8c9", "transactionHash": "0x8990b45bf5f05bb2612d98e3c0ecc71bd4b47005609d937228c40d8017dbaf32", "address": "xdc36726235dadbdb4658d33e62a249dca7c4b2bc68", "blockHash": "0x542e0820f43b0085b4f3e650afee08f117b0fe188279ea6de9fd17547da7c8e4", "blockNumber": 44833621, "createdAt": "2022-05-08T17:18:21.170Z", "data": "0x0000000000000000000000000000000000000000000034e7d7a052cc3adb4000", "timestamp": "2022-05-08T17:18:08.000Z", "transactionIndex": 1, "updatedAt": "2022-05-08T17:18:21.170Z", "value": "249839792500000000000000", "valueNumber": 249839.7925, "symbol": "XSP", "decimals": 18, "coingeckoID": "xswap-protocol", "fiatValue": 0.00074808, "blockTime": "2022-05-08T17:18:08.000Z"}, {"_id": "6265ad5633896fe62feccc69", "from": "xdc33aab4f3e5500c27bb643cf9e503ba0d8939a8c9", "to": "xdcbff4d797cc022e785dc0599720097cbdbcbc6740", "transactionHash": "0xc33dc245838eb57cd00f37f05d7aa0af879e35c748fac1910c028b3ce4cc15f2", "address": "xdc36726235dadbdb4658d33e62a249dca7c4b2bc68", "blockHash": "0xf26acb6251937ce6554ad4b3a769440397aa087437bcf3feb8c6c98609fb7c7a", "blockNumber": 44239896, "createdAt": "2022-04-24T20:04:38.785Z", "data": "0x00000000000000000000000000000000000000000005e8df9ee6e34ce34eeed4", "timestamp": "2022-04-24T20:04:26.000Z", "transactionIndex": 1, "updatedAt": "2022-04-24T20:04:38.785Z", "value": "7144343196116362799804116", "valueNumber": 7144343.196116363, "symbol": "XSP", "decimals": 18, "coingeckoID": "xswap-protocol", "fiatValue": 0.00074808, "blockTime": "2022-04-24T20:04:26.000Z"}, {"_id": "6265ad3233896fe62fecbfa8", "from": "xdcbff4d797cc022e785dc0599720097cbdbcbc6740", "to": "xdc33aab4f3e5500c27bb643cf9e503ba0d8939a8c9", "transactionHash": "0xb27d38b5e2a90059eb3a3e0e32041ca515f7f474552b6acdf130b4d8e2cebc24", "address": "xdc36726235dadbdb4658d33e62a249dca7c4b2bc68", "blockHash": "0xd1534f1c506f528100f57f6d3e776bf6bc3fc975dda7809453a42975cf745297", "blockNumber": 44239877, "createdAt": "2022-04-24T20:04:02.563Z", "data": "0x0000000000000000000000000000000000000000000598d3edba825f387e2ed4", "timestamp": "2022-04-24T20:03:48.000Z", "transactionIndex": 1, "updatedAt": "2022-04-24T20:04:02.563Z", "value": "6766338196616362799804116", "valueNumber": 6766338.196616363, "symbol": "XSP", "decimals": 18, "coingeckoID": "xswap-protocol", "fiatValue": 0.00074808, "blockTime": "2022-04-24T20:03:48.000Z"}, {"_id": "6265aca433896fe62fec90e0", "from": "xdca6bbe4c8e521296c51833ecaf8f4d9a52efe79e5", "to": "xdc33aab4f3e5500c27bb643cf9e503ba0d8939a8c9", "transactionHash": "0xb67759d0901662ca0372dda26ceed4e170fa05b737107a0993dfa59a08b39513", "address": "xdc36726235dadbdb4658d33e62a249dca7c4b2bc68", "blockHash": "0xc95a2ebe0dd7b2a43b584b49d9a8385ca19620a1f06c0681eee39c2ef121e889", "blockNumber": 44239807, "createdAt": "2022-04-24T20:01:40.817Z", "data": "0x00000000000000000000000000000000000000000000500bb12c60edaad0c000", "timestamp": "2022-04-24T20:01:28.000Z", "transactionIndex": 1, "updatedAt": "2022-04-24T20:01:40.817Z", "value": "378004999500000000000000", "valueNumber": 378004.9995, "symbol": "XSP", "decimals": 18, "coingeckoID": "xswap-protocol", "fiatValue": 0.00074808, "blockTime": "2022-04-24T20:01:28.000Z"}, {"_id": "6249fc36f0242b31ed813f09", "from": "xdc33aab4f3e5500c27bb643cf9e503ba0d8939a8c9", "to": "xdcbff4d797cc022e785dc0599720097cbdbcbc6740", "transactionHash": "0xf16fe8b77d74a536a70b008461adc5e106a7ec45d83094027563166d0bb922ab", "address": "xdc36726235dadbdb4658d33e62a249dca7c4b2bc68", "blockHash": "0x8feea9425ff67fb949c131dbab39fa9fb25e1f5ccfde4f29b2e7a78932e8110f", "blockNumber": 43342081, "createdAt": "2022-04-03T19:57:42.327Z", "data": "0x000000000000000000000000000000000000000000057b341ccbf6c0f26e3fc5", "timestamp": "2022-04-03T19:57:29.000Z", "transactionIndex": 1, "updatedAt": "2022-04-03T19:57:42.327Z", "value": "6626441481181307027210181", "valueNumber": 6626441.481181307, "symbol": "XSP", "decimals": 18, "coingeckoID": "xswap-protocol", "fiatValue": 0.00074808, "blockTime": "2022-04-03T19:57:29.000Z"}, {"_id": "6249fc05f0242b31ed813281", "from": "xdcbff4d797cc022e785dc0599720097cbdbcbc6740", "to": "xdc33aab4f3e5500c27bb643cf9e503ba0d8939a8c9", "transactionHash": "0xd8309d93e424d537353dccc0927db4928bd1881c0e239e8a40a79e4256c658af", "address": "xdc36726235dadbdb4658d33e62a249dca7c4b2bc68", "blockHash": "0x6d1fed50982ebf8c12834bf1f56aabcd623dcdc7aabda0aac8f35b820c593bb2", "blockNumber": 43342057, "createdAt": "2022-04-03T19:56:53.463Z", "data": "0x000000000000000000000000000000000000000000051506a77b90900d71c966", "timestamp": "2022-04-03T19:56:41.000Z", "transactionIndex": 1, "updatedAt": "2022-04-03T19:56:53.463Z", "value": "6143921543076425524955494", "valueNumber": 6143921.543076426, "symbol": "XSP", "decimals": 18, "coingeckoID": "xswap-protocol", "fiatValue": 0.00074808, "blockTime": "2022-04-03T19:56:41.000Z"}, {"_id": "6249fc00f0242b31ed81317c", "from": "xdcbff4d797cc022e785dc0599720097cbdbcbc6740", "to": "xdc33aab4f3e5500c27bb643cf9e503ba0d8939a8c9", "transactionHash": "0xb15bb4c6889dc6b35c7dba541aebf4dedd83e78397cfc6517d4fb50a55e325cb", "address": "xdc36726235dadbdb4658d33e62a249dca7c4b2bc68", "blockHash": "0xa9df9b810d30c81806901e14a190cf673ab45b42ac9a00930923896966d94ec4", "blockNumber": 43342053, "createdAt": "2022-04-03T19:56:48.132Z", "data": "0x0000000000000000000000000000000000000000000004123460efbb75b9365f", "timestamp": "2022-04-03T19:56:33.000Z", "transactionIndex": 2, "updatedAt": "2022-04-03T19:56:48.132Z", "value": "19225281604881502254687", "valueNumber": 19225.281604881504, "symbol": "XSP", "decimals": 18, "coingeckoID": "xswap-protocol", "fiatValue": 0.00074808, "blockTime": "2022-04-03T19:56:33.000Z"}, {"_id": "6249fbc7f0242b31ed812009", "from": "xdca6bbe4c8e521296c51833ecaf8f4d9a52efe79e5", "to": "xdc33aab4f3e5500c27bb643cf9e503ba0d8939a8c9", "transactionHash": "0xce232b0179d4a3cd9ad829d5db366748649b333addef1c9c54f2c852c1539296", "address": "xdc36726235dadbdb4658d33e62a249dca7c4b2bc68", "blockHash": "0xd9055889368b4fb33967fb242abe651833652971f8979b4ba579ff1796b8f7ba", "blockNumber": 43342026, "createdAt": "2022-04-03T19:55:51.557Z", "data": "0x00000000000000000000000000000000000000000000621b40ef76756f434000", "timestamp": "2022-04-03T19:55:39.000Z", "transactionIndex": 2, "updatedAt": "2022-04-03T19:55:51.557Z", "value": "463294656500000000000000", "valueNumber": 463294.6565, "symbol": "XSP", "decimals": 18, "coingeckoID": "xswap-protocol", "fiatValue": 0.00074808, "blockTime": "2022-04-03T19:55:39.000Z"}, {"_id": "623f4c4cf0242b31ed5ee7c6", "from": "xdc33aab4f3e5500c27bb643cf9e503ba0d8939a8c9", "to": "xdcbff4d797cc022e785dc0599720097cbdbcbc6740", "transactionHash": "0x891a80c4531ed7afca19f3e528f00b0e0c7884e81d764ab32dd04ce229943062", "address": "xdc36726235dadbdb4658d33e62a249dca7c4b2bc68", "blockHash": "0x128af57e723b5678c8d8f1d72d338381fd932611c02b0fb6b7727abab5e25fe4", "blockNumber": 42995383, "createdAt": "2022-03-26T17:24:28.070Z", "data": "0x000000000000000000000000000000000000000000050e954f14c02ebe1574c0", "timestamp": "2022-03-26T17:24:15.000Z", "transactionIndex": 1, "updatedAt": "2022-03-26T17:24:28.070Z", "value": "6113496492091039150339264", "valueNumber": 6113496.492091039, "symbol": "XSP", "decimals": 18, "coingeckoID": "xswap-protocol", "fiatValue": 0.00074808, "blockTime": "2022-03-26T17:24:15.000Z"}], "url": "https://xdc.blocksscan.io/api/token-txs/xrc20?holder=xdc33aab4f3e5500c27bb643cf9e503ba0d8939a8c9&page=2", "headers": "{\"Date\": \"Wed, 23 Nov 2022 00:09:34 GMT\", \"Content-Type\": \"application/json; charset=utf-8\", \"Content-Length\": \"3826\", \"Connection\": \"keep-alive\", \"Content-Encoding\": \"gzip\", \"ETag\": \"W/\\\"4d0b-yw23GVcheRPjj5wruujIkMcgWjA\\\"\", \"Vary\": \"Accept-Encoding\", \"x-powered-by\": \"Express, ARR/3.0, ASP.NET\", \"access-control-allow-origin\": \"*\", \"CF-Cache-Status\": \"DYNAMIC\", \"Report-To\": \"{\\\"endpoints\\\":[{\\\"url\\\":\\\"https:\\\\/\\\\/a.nel.cloudflare.com\\\\/report\\\\/v3?s=jfoqjbnNCMxLoRRO82%2FJKsPUuBtivu85icKqO7aSYdgPSgZSNTs%2FKJfPelX4wsQRCmMcY%2F4W0LP9Bs0qz1iGvewLmWwoNRMsJoON8M4URz7CehomFYrjYOvAmvla65zVl7LGUQ%3D%3D\\\"}],\\\"group\\\":\\\"cf-nel\\\",\\\"max_age\\\":604800}\", \"NEL\": \"{\\\"success_fraction\\\":0,\\\"report_to\\\":\\\"cf-nel\\\",\\\"max_age\\\":604800}\", \"Server\": \"cloudflare\", \"CF-RAY\": \"76e5ad3b495a6428-SJC\", \"alt-svc\": \"h3=\\\":443\\\"; ma=86400, h3-29=\\\":443\\\"; ma=86400\"}"}