{"total": 66, "perPage": 25, "currentPage": 1, "pages": 3, "items": [{"_id": "6350854192f18a76335347d5", "type": "0", "baseGasPrice": "1000000000", "status": true, "i_tx": 0, "blockHash": "0x649bf36df3f75909e6f892095b9e60053e1dad6ee8ac1433bf99b739cdf7f647", "blockNumber": 51845401, "from": "xdc33aab4f3e5500c27bb643cf9e503ba0d8939a8c9", "gas": 21000, "gasPrice": "1000000000", "hash": "0xb032593a9d21ca8c7adde314fadd6a208d4e7da2645986a5495b7f98b108c969", "input": "0x", "nonce": 62, "to": "xdca47bd99417063117e2e0e1b0a1e77ac6478725d7", "transactionIndex": 2, "value": "41102000000000000000000", "createdAt": "2022-10-19T23:16:17.278Z", "updatedAt": "2022-10-19T23:16:17.803Z", "cumulativeGasUsed": 47563, "from_model": {"accountName": null, "isContract": null, "contractCreation": null}, "gasUsed": 21000, "timestamp": "2022-10-19T23:16:05.000Z", "to_model": {"accountName": null, "isContract": null, "contractCreation": null}}, {"_id": "6350850292f18a7633533d46", "type": "0", "baseGasPrice": "1000000000", "status": true, "i_tx": 0, "blockHash": "0x402c08cc053969e75d25ee686876fea8ca30bc34463b050b8fb65e72b40d992e", "blockNumber": 51845373, "from": "xdc33aab4f3e5500c27bb643cf9e503ba0d8939a8c9", "gas": 79492, "gasPrice": "1000000000", "hash": "0x3d80776caf69b01507d6cff141453c48554b03f25becb23e75ed4e8cab533d23", "input": "0xa9059cbb000000000000000000000000a47bd99417063117e2e0e1b0a1e77ac6478725d700000000000000000000000000000000000000000000293e9932a778f30b8000", "nonce": 61, "to": "xdc36726235dadbdb4658d33e62a249dca7c4b2bc68", "transactionIndex": 1, "value": "0", "createdAt": "2022-10-19T23:15:14.964Z", "updatedAt": "2022-10-19T23:15:15.712Z", "cumulativeGasUsed": 52995, "from_model": {"accountName": null, "isContract": null, "contractCreation": null}, "gasUsed": 52995, "timestamp": "2022-10-19T23:15:01.000Z", "to_model": {"accountName": null, "isContract": true, "contractCreation": "xdcb6b4677c73a16f327326f48f9bbd5e7ea9fbd580"}}, {"_id": "63507be792f18a7633506eb4", "type": "0", "baseGasPrice": "1000000000", "status": true, "i_tx": 0, "blockHash": "0x4da548fd8ca03f12f1b282f117f24682e24072cce32c30d3d43cb581f848fe35", "blockNumber": 51844211, "from": "xdc33aab4f3e5500c27bb643cf9e503ba0d8939a8c9", "gas": 227392, "gasPrice": "1000000000", "hash": "0x43be3d8195edc966283601ee3472c69efb8d7489d8c9e9063332a43b91d5bcf6", "input": "0x38ed1739000000000000000000000000000000000000000000001d85eb4c627ad98c000000000000000000000000000000000000000000000000290a116eb550b41430cc00000000000000000000000000000000000000000000000000000000000000a000000000000000000000000033aab4f3e5500c27bb643cf9e503ba0d8939a8c900000000000000000000000000000000000000000000000000000000635082cd000000000000000000000000000000000000000000000000000000000000000300000000000000000000000017476dc3eda45ad916ceaddea325b240a7fb259d000000000000000000000000951857744785e80e2de051c32ee7b25f9c458c4200000000000000000000000036726235dadbdb4658d33e62a249dca7c4b2bc68", "nonce": 60, "to": "xdcf9c5e4f6e627201ab2d6fb6391239738cf4bdcf9", "transactionIndex": 1, "value": "0", "createdAt": "2022-10-19T22:36:23.096Z", "updatedAt": "2022-10-19T22:36:23.656Z", "cumulativeGasUsed": 164225, "from_model": {"accountName": null, "isContract": null, "contractCreation": null}, "gasUsed": 164225, "timestamp": "2022-10-19T22:36:09.000Z", "to_model": {"accountName": null, "isContract": true, "contractCreation": "xdc4341be609133efa17d58c8346a24207de93aec99"}}, {"_id": "63507b9092f18a76335056b0", "type": "0", "baseGasPrice": "1000000000", "status": true, "i_tx": 0, "blockHash": "0x1f47177568c31b92056d959d0b02eb57d2a90ee9011cafe2157ef8076b1fd6e8", "blockNumber": 51844168, "from": "xdc33aab4f3e5500c27bb643cf9e503ba0d8939a8c9", "gas": 79588, "gasPrice": "1000000000", "hash": "0x980e39dc97ed83ff12ca0c2ebefce1914528a7d5c901288a7ea3e825d29b2725", "input": "0xa9059cbb000000000000000000000000a47bd99417063117e2e0e1b0a1e77ac6478725d7000000000000000000000000000000000000000000016c796b356ec57bac8000", "nonce": 59, "to": "xdc36726235dadbdb4658d33e62a249dca7c4b2bc68", "transactionIndex": 1, "value": "0", "createdAt": "2022-10-19T22:34:56.317Z", "updatedAt": "2022-10-19T22:34:56.686Z", "cumulativeGasUsed": 53059, "from_model": {"accountName": null, "isContract": null, "contractCreation": null}, "gasUsed": 53059, "timestamp": "2022-10-19T22:34:43.000Z", "to_model": {"accountName": null, "isContract": true, "contractCreation": "xdcb6b4677c73a16f327326f48f9bbd5e7ea9fbd580"}}, {"_id": "635079f792f18a76334fec24", "type": "0", "baseGasPrice": "1000000000", "status": true, "i_tx": 0, "blockHash": "0xed8074f5a466be77655338bc6aa012d33f31d19fc0721d22e7c65f10fca6b272", "blockNumber": 51843964, "from": "xdc33aab4f3e5500c27bb643cf9e503ba0d8939a8c9", "gas": 56982, "gasPrice": "1000000000", "hash": "0xbda3f5bed726c8d28a1b9eca4110f43f0c20c9515b0f46aa1a1ea2c1d8aff2a0", "input": "0x095ea7b3000000000000000000000000f9c5e4f6e627201ab2d6fb6391239738cf4bdcf9ffffffffffffffffffffffffffffffffffffffffffffffffffffffffffffffff", "nonce": 58, "to": "xdc17476dc3eda45ad916ceaddea325b240a7fb259d", "transactionIndex": 1, "value": "0", "createdAt": "2022-10-19T22:28:07.598Z", "updatedAt": "2022-10-19T22:28:07.951Z", "cumulativeGasUsed": 47485, "from_model": {"accountName": null, "isContract": null, "contractCreation": null}, "gasUsed": 47485, "timestamp": "2022-10-19T22:27:55.000Z", "to_model": {"accountName": null, "isContract": true, "contractCreation": "xdc359ad8918a16bf0db048eccdbdee761548312693"}}, {"_id": "634f39de448e153f031310ba", "type": "0", "baseGasPrice": "1000000000", "status": true, "i_tx": 0, "blockHash": "0x9b03ba0e9ed3a478f9cbc1378704caf1f69f86caffeb15eeb1ba8781ebad3c64", "blockNumber": 51803530, "from": "xdca6bbe4c8e521296c51833ecaf8f4d9a52efe79e5", "gas": 21000, "gasPrice": "1000000000", "hash": "0x28766b18aaa863dd923b0e1611a2c439812054a8f45e7e5511a6bebc774dbd16", "input": "0x", "nonce": 74, "to": "xdc33aab4f3e5500c27bb643cf9e503ba0d8939a8c9", "transactionIndex": 1, "value": "1100465400000000000000", "createdAt": "2022-10-18T23:42:22.166Z", "updatedAt": "2022-10-18T23:42:22.543Z", "cumulativeGasUsed": 21000, "from_model": {"accountName": null, "isContract": null, "contractCreation": null}, "gasUsed": 21000, "timestamp": "2022-10-18T23:42:09.000Z", "to_model": {"accountName": null, "isContract": null, "contractCreation": null}}, {"_id": "634f2fed448e153f03101b0d", "type": "0", "baseGasPrice": "1000000000", "status": true, "i_tx": 0, "blockHash": "0x137aeacdb4ac5a3ed4ab2af4714e0e9a94ca5fd8b396ab58aa2ecf77aadc2592", "blockNumber": 51802290, "from": "xdc33aab4f3e5500c27bb643cf9e503ba0d8939a8c9", "gas": 56088, "gasPrice": "1000000000", "hash": "0xa8ffb4d4d0a2da5162bcc857e3dd2fa2cc59d2fb0eb3e4cfae0f771872b337f2", "input": "0xb88a802f", "nonce": 57, "to": "xdcbff4d797cc022e785dc0599720097cbdbcbc6740", "transactionIndex": 1, "value": "0", "createdAt": "2022-10-18T22:59:57.850Z", "updatedAt": "2022-10-18T22:59:58.290Z", "cumulativeGasUsed": 56088, "from_model": {"accountName": null, "isContract": null, "contractCreation": null}, "gasUsed": 56088, "timestamp": "2022-10-18T22:59:44.000Z", "to_model": {"accountName": null, "isContract": true, "contractCreation": "xdcb6b4677c73a16f327326f48f9bbd5e7ea9fbd580"}}, {"_id": "6336fad491065bf338147f0c", "type": "0", "baseGasPrice": "1000000000", "status": true, "i_tx": 0, "blockHash": "0x3dfd90bcc2d75a71ad9e24579bc7607c0f5d904626a1d4b2e32ec729a121f904", "blockNumber": 51017057, "from": "xdc33aab4f3e5500c27bb643cf9e503ba0d8939a8c9", "gas": 62490, "gasPrice": "1000000000", "hash": "0xc563195b4bc22fac0744ec9c3c0c70ae4a4ad7fb5703aaebbc447c4d868bafa6", "input": "0xb88a802f", "nonce": 56, "to": "xdcbff4d797cc022e785dc0599720097cbdbcbc6740", "transactionIndex": 1, "value": "0", "createdAt": "2022-09-30T14:19:00.758Z", "updatedAt": "2022-09-30T14:19:03.627Z", "cumulativeGasUsed": 62490, "from_model": {"accountName": null, "isContract": null, "contractCreation": null}, "gasUsed": 62490, "timestamp": "2022-09-30T14:18:47.000Z", "to_model": {"accountName": null, "isContract": true, "contractCreation": "xdcb6b4677c73a16f327326f48f9bbd5e7ea9fbd580"}}, {"_id": "632a07adee732486b7401aca", "type": "0", "baseGasPrice": "1000000000", "status": true, "i_tx": 0, "blockHash": "0x13fc51c85f2e5aac64abffca660d926039574b1b621ef7de4e0915a1d78e9495", "blockNumber": 50596595, "from": "xdc33aab4f3e5500c27bb643cf9e503ba0d8939a8c9", "gas": 103001, "gasPrice": "1000000000", "hash": "0x5244c457cc04cd6a480a4e4a6c39663046ace36836155bbac741157dbaa7ebe6", "input": "0xa694fc3a00000000000000000000000000000000000000000002db05ed7400f155078000", "nonce": 55, "to": "xdcbff4d797cc022e785dc0599720097cbdbcbc6740", "transactionIndex": 1, "value": "0", "createdAt": "2022-09-20T18:34:21.717Z", "updatedAt": "2022-09-20T18:34:22.066Z", "cumulativeGasUsed": 102827, "from_model": {"accountName": null, "isContract": null, "contractCreation": null}, "gasUsed": 102827, "timestamp": "2022-09-20T18:34:08.000Z", "to_model": {"accountName": null, "isContract": true, "contractCreation": "xdcb6b4677c73a16f327326f48f9bbd5e7ea9fbd580"}}, {"_id": "6322428733b37da326bb6288", "type": "0", "baseGasPrice": "1000000000", "status": true, "i_tx": 0, "blockHash": "0xce1c4b306c50dbf9ff53b5220d2f949ea226fca10bd56d49d62d1c76e03c82db", "blockNumber": 50344895, "from": "xdc33aab4f3e5500c27bb643cf9e503ba0d8939a8c9", "gas": 101729, "gasPrice": "1000000000", "hash": "0x9a3319212380e48ea3bb0214ce3ad09b3f7dbd5cba92199b990509d551a611e8", "input": "0xa694fc3a00000000000000000000000000000000000000000007649d973c055482970000", "nonce": 54, "to": "xdcbff4d797cc022e785dc0599720097cbdbcbc6740", "transactionIndex": 1, "value": "0", "createdAt": "2022-09-14T21:07:19.303Z", "updatedAt": "2022-09-14T21:07:22.003Z", "cumulativeGasUsed": 101555, "from_model": {"accountName": null, "isContract": null, "contractCreation": null}, "gasUsed": 101555, "timestamp": "2022-09-14T21:07:06.000Z", "to_model": {"accountName": null, "isContract": true, "contractCreation": "xdcb6b4677c73a16f327326f48f9bbd5e7ea9fbd580"}}, {"_id": "6322427c33b37da326bb4c52", "type": "0", "baseGasPrice": "1000000000", "status": true, "i_tx": 0, "blockHash": "0x2d5b612a4ff4bd2dafe954fd6672f38be327d4982f2e439402ed6b8241dbdf54", "blockNumber": 50344890, "from": "xdc33aab4f3e5500c27bb643cf9e503ba0d8939a8c9", "gas": 79826, "gasPrice": "1000000000", "hash": "0xb431b034a3361a527a00a0fc6abfa9fdc4a4e25b336afd02b104784b20a5733f", "input": "0x088abb8d0000000000000000000000000000000000000000000000000000000000000001", "nonce": 53, "to": "xdcbff4d797cc022e785dc0599720097cbdbcbc6740", "transactionIndex": 1, "value": "0", "createdAt": "2022-09-14T21:07:08.293Z", "updatedAt": "2022-09-14T21:07:10.032Z", "cumulativeGasUsed": 79826, "from_model": {"accountName": null, "isContract": null, "contractCreation": null}, "gasUsed": 79826, "timestamp": "2022-09-14T21:06:56.000Z", "to_model": {"accountName": null, "isContract": true, "contractCreation": "xdcb6b4677c73a16f327326f48f9bbd5e7ea9fbd580"}}, {"_id": "6322424b33b37da326bb38a4", "type": "0", "baseGasPrice": "1000000000", "status": true, "i_tx": 0, "blockHash": "0x65331f71bf5329ddc7e11d563a1ae480063781043291c89c97b200dc17327c10", "blockNumber": 50344865, "from": "xdc33aab4f3e5500c27bb643cf9e503ba0d8939a8c9", "gas": 56088, "gasPrice": "1000000000", "hash": "0x029f8a546f379828e75965c461552a252c32e62a1318dfa0fbaf05383f336d54", "input": "0xb88a802f", "nonce": 52, "to": "xdcbff4d797cc022e785dc0599720097cbdbcbc6740", "transactionIndex": 1, "value": "0", "createdAt": "2022-09-14T21:06:19.616Z", "updatedAt": "2022-09-14T21:06:19.972Z", "cumulativeGasUsed": 56088, "from_model": {"accountName": null, "isContract": null, "contractCreation": null}, "gasUsed": 56088, "timestamp": "2022-09-14T21:06:06.000Z", "to_model": {"accountName": null, "isContract": true, "contractCreation": "xdcb6b4677c73a16f327326f48f9bbd5e7ea9fbd580"}}, {"_id": "6322422e33b37da326bb3092", "type": "0", "baseGasPrice": "1000000000", "status": true, "i_tx": 0, "blockHash": "0x2e929aedba8a426917d19082e9cc616322a2be20312731bc7f652bf1d5adc8d2", "blockNumber": 50344850, "from": "xdc33aab4f3e5500c27bb643cf9e503ba0d8939a8c9", "gas": 56992, "gasPrice": "1000000000", "hash": "0x974cea504af3984bad13c157ff4a80f0e8bdfb15aa6f45fb529e79c8b1b9eb29", "input": "0xa9059cbb0000000000000000000000005744459c186499637e6437d870fc3505944466cb000000000000000000000000000000000000000000025faba8a35fc5674c0000", "nonce": 51, "to": "xdc36726235dadbdb4658d33e62a249dca7c4b2bc68", "transactionIndex": 1, "value": "0", "createdAt": "2022-09-14T21:05:50.040Z", "updatedAt": "2022-09-14T21:05:50.352Z", "cumulativeGasUsed": 37995, "from_model": {"accountName": null, "isContract": null, "contractCreation": null}, "gasUsed": 37995, "timestamp": "2022-09-14T21:05:36.000Z", "to_model": {"accountName": null, "isContract": true, "contractCreation": "xdcb6b4677c73a16f327326f48f9bbd5e7ea9fbd580"}}, {"_id": "63223def33b37da326b9b44a", "type": "0", "baseGasPrice": "1000000000", "status": true, "i_tx": 0, "blockHash": "0xbc0bd5f790f029b045abf39e05d70e94c2358565f97ca6e5833e0f18dea631d7", "blockNumber": 50344308, "from": "xdc33aab4f3e5500c27bb643cf9e503ba0d8939a8c9", "gas": 56088, "gasPrice": "1000000000", "hash": "0x1f7cb62cf74ccd0bd6a0592c2199c74d3da9ff95c256428df38bacbdb6d723bf", "input": "0xb88a802f", "nonce": 50, "to": "xdcbff4d797cc022e785dc0599720097cbdbcbc6740", "transactionIndex": 1, "value": "0", "createdAt": "2022-09-14T20:47:43.966Z", "updatedAt": "2022-09-14T20:47:44.322Z", "cumulativeGasUsed": 56088, "from_model": {"accountName": null, "isContract": null, "contractCreation": null}, "gasUsed": 56088, "timestamp": "2022-09-14T20:47:31.000Z", "to_model": {"accountName": null, "isContract": true, "contractCreation": "xdcb6b4677c73a16f327326f48f9bbd5e7ea9fbd580"}}, {"_id": "6320fbebd3e17e3d530533da", "type": "0", "baseGasPrice": "1000000000", "status": true, "i_tx": 0, "blockHash": "0x883645d5c6a657d8cd63a3363027558308c60be024bf5794a237e8f716636374", "blockNumber": 50303538, "from": "xdc33aab4f3e5500c27bb643cf9e503ba0d8939a8c9", "gas": 56088, "gasPrice": "1000000000", "hash": "0x1e619c3c2847be1e92fd7691cb64bb9f5a2c99dee613585583eea38ab8ab9fd7", "input": "0xb88a802f", "nonce": 49, "to": "xdcbff4d797cc022e785dc0599720097cbdbcbc6740", "transactionIndex": 1, "value": "0", "createdAt": "2022-09-13T21:53:47.725Z", "updatedAt": "2022-09-13T21:53:48.678Z", "cumulativeGasUsed": 56088, "from_model": {"accountName": null, "isContract": null, "contractCreation": null}, "gasUsed": 56088, "timestamp": "2022-09-13T21:53:34.000Z", "to_model": {"accountName": null, "isContract": true, "contractCreation": "xdcb6b4677c73a16f327326f48f9bbd5e7ea9fbd580"}}, {"_id": "63179fea7a17d6098561abeb", "status": true, "i_tx": 0, "blockHash": "0xb4a3a450fd2fcee074fc2f68e64028092ae5995f8a2c9cee0e711265c6f37a74", "blockNumber": 49999557, "from": "xdc33aab4f3e5500c27bb643cf9e503ba0d8939a8c9", "gas": 59825, "gasPrice": "1000000000", "hash": "0xb43b66263291680e1026f06f784579f7727cfd59292561d39135ba25053e933f", "input": "0xfdb5a03e", "nonce": 48, "to": "xdcbff4d797cc022e785dc0599720097cbdbcbc6740", "transactionIndex": 1, "value": "0", "createdAt": "2022-09-06T19:30:50.687Z", "updatedAt": "2022-09-06T19:30:50.868Z", "cumulativeGasUsed": 59825, "from_model": {"accountName": null, "isContract": null, "contractCreation": null}, "gasUsed": 59825, "timestamp": "2022-09-06T19:30:37.000Z", "to_model": {"accountName": null, "isContract": true, "contractCreation": "xdcb6b4677c73a16f327326f48f9bbd5e7ea9fbd580"}}, {"_id": "63179fb97a17d60985619cef", "status": true, "i_tx": 0, "blockHash": "0x28c8ee50c67a345ae789f0b434ccedb63bba6d02c2458a09ab6cf47f2254607e", "blockNumber": 49999532, "from": "xdc33aab4f3e5500c27bb643cf9e503ba0d8939a8c9", "gas": 59825, "gasPrice": "1000000000", "hash": "0x4f3eb0ea0e8258d13bb73bf982597f56a5649c7d591ea8d6be8e13035bb54cfb", "input": "0xfdb5a03e", "nonce": 47, "to": "xdcbff4d797cc022e785dc0599720097cbdbcbc6740", "transactionIndex": 1, "value": "0", "createdAt": "2022-09-06T19:30:01.262Z", "updatedAt": "2022-09-06T19:30:03.496Z", "cumulativeGasUsed": 59825, "from_model": {"accountName": null, "isContract": null, "contractCreation": null}, "gasUsed": 59825, "timestamp": "2022-09-06T19:29:47.000Z", "to_model": {"accountName": null, "isContract": true, "contractCreation": "xdcb6b4677c73a16f327326f48f9bbd5e7ea9fbd580"}}, {"_id": "63179fa17a17d60985619b6c", "status": true, "i_tx": 0, "blockHash": "0xd6ec10ca30a5d1e027cbf3fd85d7e79e0ba38d1ada3faf01c8a08f6550e3c79a", "blockNumber": 49999521, "from": "xdc33aab4f3e5500c27bb643cf9e503ba0d8939a8c9", "gas": 59825, "gasPrice": "1000000000", "hash": "0xca0616a5fc297656e21688ea05abf4db8593266f3a32ea8e40aa1fb3b11ae5ef", "input": "0xfdb5a03e", "nonce": 46, "to": "xdcbff4d797cc022e785dc0599720097cbdbcbc6740", "transactionIndex": 1, "value": "0", "createdAt": "2022-09-06T19:29:37.749Z", "updatedAt": "2022-09-06T19:29:37.914Z", "cumulativeGasUsed": 59825, "from_model": {"accountName": null, "isContract": null, "contractCreation": null}, "gasUsed": 59825, "timestamp": "2022-09-06T19:29:25.000Z", "to_model": {"accountName": null, "isContract": true, "contractCreation": "xdcb6b4677c73a16f327326f48f9bbd5e7ea9fbd580"}}, {"_id": "63179efd7a17d6098561681e", "status": true, "i_tx": 0, "blockHash": "0x37589792421339eb7f38d0be0c881ac4cf43d9b85558a37ad8cd349c7e881ef2", "blockNumber": 49999443, "from": "xdc33aab4f3e5500c27bb643cf9e503ba0d8939a8c9", "gas": 103065, "gasPrice": "1000000000", "hash": "0x3eb30e1eafee0b2bf60613de2d5dd2c72f09fe74a7edfafd050895484e9302d7", "input": "0xa694fc3a00000000000000000000000000000000000000000007a0bbe7ea73c7b35f8000", "nonce": 45, "to": "xdcbff4d797cc022e785dc0599720097cbdbcbc6740", "transactionIndex": 1, "value": "0", "createdAt": "2022-09-06T19:26:53.812Z", "updatedAt": "2022-09-06T19:26:54.488Z", "cumulativeGasUsed": 102891, "from_model": {"accountName": null, "isContract": null, "contractCreation": null}, "gasUsed": 102891, "timestamp": "2022-09-06T19:26:41.000Z", "to_model": {"accountName": null, "isContract": true, "contractCreation": "xdcb6b4677c73a16f327326f48f9bbd5e7ea9fbd580"}}, {"_id": "631792207a17d609855c36e3", "status": true, "i_tx": 0, "blockHash": "0xa8aa70eaeab63b476d90cc53afc843e8a548c7bbdcc1e3d2874543a40136a6b7", "blockNumber": 49997881, "from": "xdc33aab4f3e5500c27bb643cf9e503ba0d8939a8c9", "gas": 56088, "gasPrice": "1000000000", "hash": "0x99dc149cf7cfecd7e6dadcb5ce894f933b38d02c8fb1882d765a010678a60311", "input": "0xb88a802f", "nonce": 44, "to": "xdcbff4d797cc022e785dc0599720097cbdbcbc6740", "transactionIndex": 1, "value": "0", "createdAt": "2022-09-06T18:32:00.541Z", "updatedAt": "2022-09-06T18:32:00.705Z", "cumulativeGasUsed": 56088, "from_model": {"accountName": null, "isContract": null, "contractCreation": null}, "gasUsed": 56088, "timestamp": "2022-09-06T18:31:37.000Z", "to_model": {"accountName": null, "isContract": true, "contractCreation": "xdcb6b4677c73a16f327326f48f9bbd5e7ea9fbd580"}}, {"_id": "631791be7a17d609855c2bf7", "status": true, "i_tx": 0, "blockHash": "0x6ef8ec447af3456a0a1d5376053c7d0778078dbe1643572b160a7d03ed5a4bb7", "blockNumber": 49997845, "from": "xdca6bbe4c8e521296c51833ecaf8f4d9a52efe79e5", "gas": 21000, "gasPrice": "1000000000", "hash": "0x986ee1dce985d22cd2d39aafb9dd63cf171c86fb7ed4cafabf216e5863333ee8", "input": "0x", "nonce": 66, "to": "xdc33aab4f3e5500c27bb643cf9e503ba0d8939a8c9", "transactionIndex": 1, "value": "40000000000000000000000", "createdAt": "2022-09-06T18:30:22.494Z", "updatedAt": "2022-09-06T18:30:22.677Z", "cumulativeGasUsed": 21000, "from_model": {"accountName": null, "isContract": null, "contractCreation": null}, "gasUsed": 21000, "timestamp": "2022-09-06T18:29:53.000Z", "to_model": {"accountName": null, "isContract": null, "contractCreation": null}}, {"_id": "6297a0a1e36a88b3294c57da", "status": true, "i_tx": 0, "blockHash": "0x1e85438f9ae458ad46b801bae100332ade15a4a76c9eefbd3614f4f960e35a0d", "blockNumber": 45859477, "from": "xdc33aab4f3e5500c27bb643cf9e503ba0d8939a8c9", "gas": 79396, "gasPrice": "1000000000", "hash": "0xecf0103ef4c060d53c2b81c8209048708effd8c94adef069a1019745b00c7450", "input": "0xa9059cbb000000000000000000000000a47bd99417063117e2e0e1b0a1e77ac6478725d700000000000000000000000000000000000000000000818826cf384bab530000", "nonce": 43, "to": "xdc36726235dadbdb4658d33e62a249dca7c4b2bc68", "transactionIndex": 1, "value": "0", "createdAt": "2022-06-01T17:23:45.024Z", "updatedAt": "2022-06-01T17:23:45.327Z", "cumulativeGasUsed": 52931, "from_model": {"accountName": null, "isContract": null, "contractCreation": null}, "gasUsed": 52931, "timestamp": "2022-06-01T17:23:32.000Z", "to_model": {"accountName": null, "isContract": true, "contractCreation": "xdcb6b4677c73a16f327326f48f9bbd5e7ea9fbd580"}}, {"_id": "62979b5be36a88b32949e694", "status": true, "i_tx": 0, "blockHash": "0x5e1de84349eefc7abda5bf97c44f71f5fb589b9e755e3c5e4e249b63366d134d", "blockNumber": 45858802, "from": "xdc33aab4f3e5500c27bb643cf9e503ba0d8939a8c9", "gas": 56088, "gasPrice": "1000000000", "hash": "0xfe0f4d38b046967c912383518c95239f782085e69dcddd10cc2934456224213f", "input": "0xb88a802f", "nonce": 42, "to": "xdcbff4d797cc022e785dc0599720097cbdbcbc6740", "transactionIndex": 1, "value": "0", "createdAt": "2022-06-01T17:01:15.948Z", "updatedAt": "2022-06-01T17:01:16.388Z", "cumulativeGasUsed": 56088, "from_model": {"accountName": null, "isContract": null, "contractCreation": null}, "gasUsed": 56088, "timestamp": "2022-06-01T17:01:02.000Z", "to_model": {"accountName": null, "isContract": true, "contractCreation": "xdcb6b4677c73a16f327326f48f9bbd5e7ea9fbd580"}}, {"_id": "6277fc02c3419031697659a6", "status": true, "i_tx": 0, "blockHash": "0xbeabf246dfa0a75ee6c0aaf5eaa88d09447576c4e1da8eefddd55753e508cc42", "blockNumber": 44833704, "from": "xdc33aab4f3e5500c27bb643cf9e503ba0d8939a8c9", "gas": 104630, "gasPrice": "1000000000", "hash": "0x531bd807cf01eb28933a4f9546c8018d5fa34fe35ef9ab450ebf15a4451d51d6", "input": "0xa694fc3a0000000000000000000000000000000000000000000632c9b8b1a8d977770531", "nonce": 41, "to": "xdcbff4d797cc022e785dc0599720097cbdbcbc6740", "transactionIndex": 1, "value": "0", "createdAt": "2022-05-08T17:21:06.544Z", "updatedAt": "2022-05-08T17:21:06.998Z", "cumulativeGasUsed": 89456, "from_model": {"accountName": null, "isContract": null, "contractCreation": null}, "gasUsed": 89456, "timestamp": "2022-05-08T17:20:54.000Z", "to_model": {"accountName": null, "isContract": true, "contractCreation": "xdcb6b4677c73a16f327326f48f9bbd5e7ea9fbd580"}}, {"_id": "6277fbf9c341903169765868", "status": false, "i_tx": 0, "blockHash": "0xb84052dd20285a84b94a500f660f12c95c1aa47723cccf43277c691a64c1a577", "blockNumber": 44833699, "from": "xdc33aab4f3e5500c27bb643cf9e503ba0d8939a8c9", "gas": 56088, "gasPrice": "1000000000", "hash": "0xe93fdcce8b159c532cf563c1f34a92141f46f46b9d5fe7cd2a9098b97de35cec", "input": "0xb88a802f", "nonce": 40, "to": "xdcbff4d797cc022e785dc0599720097cbdbcbc6740", "transactionIndex": 1, "value": "0", "createdAt": "2022-05-08T17:20:57.410Z", "updatedAt": "2022-05-08T17:20:57.795Z", "cumulativeGasUsed": 56088, "from_model": {"accountName": null, "isContract": null, "contractCreation": null}, "gasUsed": 56088, "timestamp": "2022-05-08T17:20:44.000Z", "to_model": {"accountName": null, "isContract": true, "contractCreation": "xdcb6b4677c73a16f327326f48f9bbd5e7ea9fbd580"}}], "url": "https://xdc.blocksscan.io/api/txs/listByAccount/xdc33aab4f3e5500c27bb643cf9e503ba0d8939a8c9?tx_type=all?page=2", "headers": "{\"Date\": \"Wed, 23 Nov 2022 00:14:57 GMT\", \"Content-Type\": \"application/json; charset=utf-8\", \"Content-Length\": \"4447\", \"Connection\": \"keep-alive\", \"Content-Encoding\": \"gzip\", \"ETag\": \"W/\\\"55b3-2s3SMj+F8qZSSjqZOl7TJUOGKiw\\\"\", \"Vary\": \"Accept-Encoding\", \"x-powered-by\": \"Express, ARR/3.0, ASP.NET\", \"access-control-allow-origin\": \"*\", \"CF-Cache-Status\": \"DYNAMIC\", \"Report-To\": \"{\\\"endpoints\\\":[{\\\"url\\\":\\\"https:\\\\/\\\\/a.nel.cloudflare.com\\\\/report\\\\/v3?s=T85utinA%2BPqFcs9k5HJzG%2BnSUXJYwJAtnuhifx%2Bp%2B9twDi%2F%2FTolML066n5zTFdes9Psl6NiLnhjJFr73IspFjQ3u4%2FOLDHOENP7t0RkdLjl1Zw%2FXf44TqYygz35oPw9RcIxR0w%3D%3D\\\"}],\\\"group\\\":\\\"cf-nel\\\",\\\"max_age\\\":604800}\", \"NEL\": \"{\\\"success_fraction\\\":0,\\\"report_to\\\":\\\"cf-nel\\\",\\\"max_age\\\":604800}\", \"Server\": \"cloudflare\", \"CF-RAY\": \"76e5b51f0c88fb28-SJC\", \"alt-svc\": \"h3=\\\":443\\\"; ma=86400, h3-29=\\\":443\\\"; ma=86400\"}"}