{"total": 69, "perPage": 25, "currentPage": 1, "pages": 3, "items": [{"_id": "63508504797f59c8dfe5e2ff", "from": "xdc33aab4f3e5500c27bb643cf9e503ba0d8939a8c9", "to": "xdca47bd99417063117e2e0e1b0a1e77ac6478725d7", "transactionHash": "0x3d80776caf69b01507d6cff141453c48554b03f25becb23e75ed4e8cab533d23", "address": "xdc36726235dadbdb4658d33e62a249dca7c4b2bc68", "blockHash": "0xbd1b95fdc4209ecb1306a15bb27044ec57ddf4d50bc89ed7cda9fb2503f9eebb", "blockNumber": 51845373, "createdAt": "2022-10-19T23:15:16.542Z", "data": "0x00000000000000000000000000000000000000000000293e9932a778f30b8000", "timestamp": "2022-10-19T23:15:01.000Z", "transactionIndex": 1, "updatedAt": "2022-10-19T23:15:16.542Z", "value": "194771763000000000000000", "valueNumber": 194771.763, "symbol": "XSP", "decimals": 18, "coingeckoID": "xswap-protocol", "fiatValue": 0.00074808, "blockTime": "2022-10-19T23:15:01.000Z"}, {"_id": "63508503e83ab61d6b270515", "from": "xdc33aab4f3e5500c27bb643cf9e503ba0d8939a8c9", "to": "xdca47bd99417063117e2e0e1b0a1e77ac6478725d7", "transactionHash": "0x3d80776caf69b01507d6cff141453c48554b03f25becb23e75ed4e8cab533d23", "address": "xdc36726235dadbdb4658d33e62a249dca7c4b2bc68", "blockHash": "0xbd1b95fdc4209ecb1306a15bb27044ec57ddf4d50bc89ed7cda9fb2503f9eebb", "blockNumber": 51845373, "createdAt": "2022-10-19T23:15:15.031Z", "data": "0x00000000000000000000000000000000000000000000293e9932a778f30b8000", "timestamp": "2022-10-19T23:15:01.000Z", "transactionIndex": 1, "updatedAt": "2022-10-19T23:15:15.031Z", "value": "194771763000000000000000", "valueNumber": 194771.763, "symbol": "XSP", "decimals": 18, "coingeckoID": "xswap-protocol", "fiatValue": 0.00074808, "blockTime": "2022-10-19T23:15:01.000Z"}, {"_id": "63507be7e83ab61d6bece64a", "from": "xdc33aab4f3e5500c27bb643cf9e503ba0d8939a8c9", "to": "xdccd2de857ea736c11cda62d2dc69fef7a8947e222", "transactionHash": "0x43be3d8195edc966283601ee3472c69efb8d7489d8c9e9063332a43b91d5bcf6", "address": "xdc17476dc3eda45ad916ceaddea325b240a7fb259d", "blockHash": "0x9c1b38273ad461c8944044b42c94276253486889615a6714d818585f1b549417", "blockNumber": 51844211, "createdAt": "2022-10-19T22:36:23.236Z", "data": "0x000000000000000000000000000000000000000000001d85eb4c627ad98c0000", "timestamp": "2022-10-19T22:36:09.000Z", "transactionIndex": 1, "updatedAt": "2022-10-19T22:36:23.236Z", "value": "139419000000000000000000", "valueNumber": 139419, "symbol": "XTT", "decimals": 18, "coingeckoID": "0", "fiatValue": 0, "blockTime": "2022-10-19T22:36:09.000Z"}, {"_id": "63507be7e83ab61d6bece654", "from": "xdceccf20ec789d99357439647f43777a1b0bfa0e8a", "to": "xdc33aab4f3e5500c27bb643cf9e503ba0d8939a8c9", "transactionHash": "0x43be3d8195edc966283601ee3472c69efb8d7489d8c9e9063332a43b91d5bcf6", "address": "xdc36726235dadbdb4658d33e62a249dca7c4b2bc68", "blockHash": "0x9c1b38273ad461c8944044b42c94276253486889615a6714d818585f1b549417", "blockNumber": 51844211, "createdAt": "2022-10-19T22:36:23.249Z", "data": "0x00000000000000000000000000000000000000000000293e99331a0fd3b302f6", "timestamp": "2022-10-19T22:36:09.000Z", "transactionIndex": 1, "updatedAt": "2022-10-19T22:36:23.249Z", "value": "194771763125992339735286", "valueNumber": 194771.76312599235, "symbol": "XSP", "decimals": 18, "coingeckoID": "xswap-protocol", "fiatValue": 0.00074808, "blockTime": "2022-10-19T22:36:09.000Z"}, {"_id": "63507be8797f59c8dfa70a60", "from": "xdc33aab4f3e5500c27bb643cf9e503ba0d8939a8c9", "to": "xdccd2de857ea736c11cda62d2dc69fef7a8947e222", "transactionHash": "0x43be3d8195edc966283601ee3472c69efb8d7489d8c9e9063332a43b91d5bcf6", "address": "xdc17476dc3eda45ad916ceaddea325b240a7fb259d", "blockHash": "0x9c1b38273ad461c8944044b42c94276253486889615a6714d818585f1b549417", "blockNumber": 51844211, "createdAt": "2022-10-19T22:36:24.141Z", "data": "0x000000000000000000000000000000000000000000001d85eb4c627ad98c0000", "timestamp": "2022-10-19T22:36:09.000Z", "transactionIndex": 1, "updatedAt": "2022-10-19T22:36:24.141Z", "value": "139419000000000000000000", "valueNumber": 139419, "symbol": "XTT", "decimals": 18, "coingeckoID": "0", "fiatValue": 0, "blockTime": "2022-10-19T22:36:09.000Z"}, {"_id": "63507be8797f59c8dfa70a6d", "from": "xdceccf20ec789d99357439647f43777a1b0bfa0e8a", "to": "xdc33aab4f3e5500c27bb643cf9e503ba0d8939a8c9", "transactionHash": "0x43be3d8195edc966283601ee3472c69efb8d7489d8c9e9063332a43b91d5bcf6", "address": "xdc36726235dadbdb4658d33e62a249dca7c4b2bc68", "blockHash": "0x9c1b38273ad461c8944044b42c94276253486889615a6714d818585f1b549417", "blockNumber": 51844211, "createdAt": "2022-10-19T22:36:24.146Z", "data": "0x00000000000000000000000000000000000000000000293e99331a0fd3b302f6", "timestamp": "2022-10-19T22:36:09.000Z", "transactionIndex": 1, "updatedAt": "2022-10-19T22:36:24.146Z", "value": "194771763125992339735286", "valueNumber": 194771.76312599235, "symbol": "XSP", "decimals": 18, "coingeckoID": "xswap-protocol", "fiatValue": 0.00074808, "blockTime": "2022-10-19T22:36:09.000Z"}, {"_id": "63507b90e83ab61d6bec55a4", "from": "xdc33aab4f3e5500c27bb643cf9e503ba0d8939a8c9", "to": "xdca47bd99417063117e2e0e1b0a1e77ac6478725d7", "transactionHash": "0x980e39dc97ed83ff12ca0c2ebefce1914528a7d5c901288a7ea3e825d29b2725", "address": "xdc36726235dadbdb4658d33e62a249dca7c4b2bc68", "blockHash": "0x80cb71ce3efe590091f7f2ba155f2840eb36d1d7cdc5179eb473c07e3f18c90c", "blockNumber": 51844168, "createdAt": "2022-10-19T22:34:56.385Z", "data": "0x000000000000000000000000000000000000000000016c796b356ec57bac8000", "timestamp": "2022-10-19T22:34:43.000Z", "transactionIndex": 1, "updatedAt": "2022-10-19T22:34:56.385Z", "value": "1721181181000000000000000", "valueNumber": 1721181.181, "symbol": "XSP", "decimals": 18, "coingeckoID": "xswap-protocol", "fiatValue": 0.00074808, "blockTime": "2022-10-19T22:34:43.000Z"}, {"_id": "63507b91797f59c8dfa36d37", "from": "xdc33aab4f3e5500c27bb643cf9e503ba0d8939a8c9", "to": "xdca47bd99417063117e2e0e1b0a1e77ac6478725d7", "transactionHash": "0x980e39dc97ed83ff12ca0c2ebefce1914528a7d5c901288a7ea3e825d29b2725", "address": "xdc36726235dadbdb4658d33e62a249dca7c4b2bc68", "blockHash": "0x80cb71ce3efe590091f7f2ba155f2840eb36d1d7cdc5179eb473c07e3f18c90c", "blockNumber": 51844168, "createdAt": "2022-10-19T22:34:57.310Z", "data": "0x000000000000000000000000000000000000000000016c796b356ec57bac8000", "timestamp": "2022-10-19T22:34:43.000Z", "transactionIndex": 1, "updatedAt": "2022-10-19T22:34:57.310Z", "value": "1721181181000000000000000", "valueNumber": 1721181.181, "symbol": "XSP", "decimals": 18, "coingeckoID": "xswap-protocol", "fiatValue": 0.00074808, "blockTime": "2022-10-19T22:34:43.000Z"}, {"_id": "634f2feee83ab61d6b300337", "from": "xdcbff4d797cc022e785dc0599720097cbdbcbc6740", "to": "xdc33aab4f3e5500c27bb643cf9e503ba0d8939a8c9", "transactionHash": "0xa8ffb4d4d0a2da5162bcc857e3dd2fa2cc59d2fb0eb3e4cfae0f771872b337f2", "address": "xdc36726235dadbdb4658d33e62a249dca7c4b2bc68", "blockHash": "0x93feb3e8590299f78b9fe4f54217ad5353c512c17ed2fe8a1eec45c7f582ef50", "blockNumber": 51802290, "createdAt": "2022-10-18T22:59:58.088Z", "data": "0x00000000000000000000000000000000000000000000100ee7f297d87b5c68e0", "timestamp": "2022-10-18T22:59:44.000Z", "transactionIndex": 1, "updatedAt": "2022-10-18T22:59:58.088Z", "value": "75832831731069420857568", "valueNumber": 75832.83173106943, "symbol": "XSP", "decimals": 18, "coingeckoID": "xswap-protocol", "fiatValue": 0.00074808, "blockTime": "2022-10-18T22:59:44.000Z"}, {"_id": "634f2fed797f59c8df5724b5", "from": "xdcbff4d797cc022e785dc0599720097cbdbcbc6740", "to": "xdc33aab4f3e5500c27bb643cf9e503ba0d8939a8c9", "transactionHash": "0xa8ffb4d4d0a2da5162bcc857e3dd2fa2cc59d2fb0eb3e4cfae0f771872b337f2", "address": "xdc36726235dadbdb4658d33e62a249dca7c4b2bc68", "blockHash": "0x93feb3e8590299f78b9fe4f54217ad5353c512c17ed2fe8a1eec45c7f582ef50", "blockNumber": 51802290, "createdAt": "2022-10-18T22:59:57.679Z", "data": "0x00000000000000000000000000000000000000000000100ee7f297d87b5c68e0", "timestamp": "2022-10-18T22:59:44.000Z", "transactionIndex": 1, "updatedAt": "2022-10-18T22:59:57.679Z", "value": "75832831731069420857568", "valueNumber": 75832.83173106943, "symbol": "XSP", "decimals": 18, "coingeckoID": "xswap-protocol", "fiatValue": 0.00074808, "blockTime": "2022-10-18T22:59:44.000Z"}, {"_id": "6336fad6e206623bd91d6612", "from": "xdcbff4d797cc022e785dc0599720097cbdbcbc6740", "to": "xdc33aab4f3e5500c27bb643cf9e503ba0d8939a8c9", "transactionHash": "0xc563195b4bc22fac0744ec9c3c0c70ae4a4ad7fb5703aaebbc447c4d868bafa6", "address": "xdc36726235dadbdb4658d33e62a249dca7c4b2bc68", "blockHash": "0x7c6c2436aa2d67705435bf78625a42f7272d35a222836fe44a62c52fb312e23a", "blockNumber": 51017057, "createdAt": "2022-09-30T14:19:01.960Z", "data": "0x000000000000000000000000000000000000000000000897239c938eeef5190a", "timestamp": "2022-09-30T14:18:47.000Z", "transactionIndex": 1, "updatedAt": "2022-09-30T14:19:01.960Z", "value": "40566956306217102022922", "valueNumber": 40566.9563062171, "symbol": "XSP", "decimals": 18, "coingeckoID": "xswap-protocol", "fiatValue": 0.00074808, "blockTime": "2022-09-30T14:18:47.000Z"}, {"_id": "6336fad663b3788feccc1ac0", "from": "xdcbff4d797cc022e785dc0599720097cbdbcbc6740", "to": "xdc33aab4f3e5500c27bb643cf9e503ba0d8939a8c9", "transactionHash": "0xc563195b4bc22fac0744ec9c3c0c70ae4a4ad7fb5703aaebbc447c4d868bafa6", "address": "xdc36726235dadbdb4658d33e62a249dca7c4b2bc68", "blockHash": "0x7c6c2436aa2d67705435bf78625a42f7272d35a222836fe44a62c52fb312e23a", "blockNumber": 51017057, "createdAt": "2022-09-30T14:19:02.394Z", "data": "0x000000000000000000000000000000000000000000000897239c938eeef5190a", "timestamp": "2022-09-30T14:18:47.000Z", "transactionIndex": 1, "updatedAt": "2022-09-30T14:19:02.394Z", "value": "40566956306217102022922", "valueNumber": 40566.9563062171, "symbol": "XSP", "decimals": 18, "coingeckoID": "xswap-protocol", "fiatValue": 0.00074808, "blockTime": "2022-09-30T14:18:47.000Z"}, {"_id": "6336dc9be206623bd912779d", "from": "xdc359ad8918a16bf0db048eccdbdee761548312693", "to": "xdc33aab4f3e5500c27bb643cf9e503ba0d8939a8c9", "transactionHash": "0xd46c2cfbf1c1e435501f6d8b8dcb594fa33e9a88b9318eb7b63ab05f1fca932a", "address": "xdc17476dc3eda45ad916ceaddea325b240a7fb259d", "blockHash": "0xd1b173e46c25b408f765b0c1a0ee8b2d2bff499bf4bb84c8531e03ef14d7035d", "blockNumber": 51013204, "createdAt": "2022-09-30T12:10:03.766Z", "data": "0x000000000000000000000000000000000000000000001d85eb4c627ad98c0000", "timestamp": "2022-09-30T12:09:50.000Z", "transactionIndex": 1, "updatedAt": "2022-09-30T12:10:03.766Z", "value": "139419000000000000000000", "valueNumber": 139419, "symbol": "XTT", "decimals": 18, "coingeckoID": "0", "fiatValue": 0, "blockTime": "2022-09-30T12:09:50.000Z"}, {"_id": "6336dc9d63b3788fecc1d78c", "from": "xdc359ad8918a16bf0db048eccdbdee761548312693", "to": "xdc33aab4f3e5500c27bb643cf9e503ba0d8939a8c9", "transactionHash": "0xd46c2cfbf1c1e435501f6d8b8dcb594fa33e9a88b9318eb7b63ab05f1fca932a", "address": "xdc17476dc3eda45ad916ceaddea325b240a7fb259d", "blockHash": "0xd1b173e46c25b408f765b0c1a0ee8b2d2bff499bf4bb84c8531e03ef14d7035d", "blockNumber": 51013204, "createdAt": "2022-09-30T12:10:05.294Z", "data": "0x000000000000000000000000000000000000000000001d85eb4c627ad98c0000", "timestamp": "2022-09-30T12:09:50.000Z", "transactionIndex": 1, "updatedAt": "2022-09-30T12:10:05.294Z", "value": "139419000000000000000000", "valueNumber": 139419, "symbol": "XTT", "decimals": 18, "coingeckoID": "0", "fiatValue": 0, "blockTime": "2022-09-30T12:09:50.000Z"}, {"_id": "632a07ad63b3788fecdf7bd9", "from": "xdc33aab4f3e5500c27bb643cf9e503ba0d8939a8c9", "to": "xdcbff4d797cc022e785dc0599720097cbdbcbc6740", "transactionHash": "0x5244c457cc04cd6a480a4e4a6c39663046ace36836155bbac741157dbaa7ebe6", "address": "xdc36726235dadbdb4658d33e62a249dca7c4b2bc68", "blockHash": "0x5dc378be1ba139bbbd2ab386e1e43194c4298abeacb2b70e0f4f7c60fe9e35ca", "blockNumber": 50596595, "createdAt": "2022-09-20T18:34:21.430Z", "data": "0x00000000000000000000000000000000000000000002cfde55f4c37049ac9880", "timestamp": "2022-09-20T18:34:08.000Z", "transactionIndex": 1, "updatedAt": "2022-09-20T18:34:21.430Z", "value": "3399482872157913010182272", "valueNumber": 3399482.872157913, "symbol": "XSP", "decimals": 18, "coingeckoID": "xswap-protocol", "fiatValue": 0.00074808, "blockTime": "2022-09-20T18:34:08.000Z"}, {"_id": "632a07adb6a7c18022dd3ef7", "from": "xdc33aab4f3e5500c27bb643cf9e503ba0d8939a8c9", "to": "xdcbff4d797cc022e785dc0599720097cbdbcbc6740", "transactionHash": "0x5244c457cc04cd6a480a4e4a6c39663046ace36836155bbac741157dbaa7ebe6", "address": "xdc36726235dadbdb4658d33e62a249dca7c4b2bc68", "blockHash": "0x5dc378be1ba139bbbd2ab386e1e43194c4298abeacb2b70e0f4f7c60fe9e35ca", "blockNumber": 50596595, "createdAt": "2022-09-20T18:34:21.835Z", "data": "0x00000000000000000000000000000000000000000002cfde55f4c37049ac9880", "timestamp": "2022-09-20T18:34:08.000Z", "transactionIndex": 1, "updatedAt": "2022-09-20T18:34:21.835Z", "value": "3399482872157913010182272", "valueNumber": 3399482.872157913, "symbol": "XSP", "decimals": 18, "coingeckoID": "xswap-protocol", "fiatValue": 0.00074808, "blockTime": "2022-09-20T18:34:08.000Z"}, {"_id": "6322428963b3788fec9b4e48", "from": "xdc33aab4f3e5500c27bb643cf9e503ba0d8939a8c9", "to": "xdcbff4d797cc022e785dc0599720097cbdbcbc6740", "transactionHash": "0x9a3319212380e48ea3bb0214ce3ad09b3f7dbd5cba92199b990509d551a611e8", "address": "xdc36726235dadbdb4658d33e62a249dca7c4b2bc68", "blockHash": "0x9651e59ec99a7c879de87d241cc5e826eca8f11e1503135727f76add732b87c9", "blockNumber": 50344895, "createdAt": "2022-09-14T21:07:21.497Z", "data": "0x00000000000000000000000000000000000000000007649d973c055482970000", "timestamp": "2022-09-14T21:07:06.000Z", "transactionIndex": 1, "updatedAt": "2022-09-14T21:07:21.497Z", "value": "8937624422000000000000000", "valueNumber": 8937624.422, "symbol": "XSP", "decimals": 18, "coingeckoID": "xswap-protocol", "fiatValue": 0.00074808, "blockTime": "2022-09-14T21:07:06.000Z"}, {"_id": "63224289b6a7c1802283046b", "from": "xdc33aab4f3e5500c27bb643cf9e503ba0d8939a8c9", "to": "xdcbff4d797cc022e785dc0599720097cbdbcbc6740", "transactionHash": "0x9a3319212380e48ea3bb0214ce3ad09b3f7dbd5cba92199b990509d551a611e8", "address": "xdc36726235dadbdb4658d33e62a249dca7c4b2bc68", "blockHash": "0x9651e59ec99a7c879de87d241cc5e826eca8f11e1503135727f76add732b87c9", "blockNumber": 50344895, "createdAt": "2022-09-14T21:07:21.270Z", "data": "0x00000000000000000000000000000000000000000007649d973c055482970000", "timestamp": "2022-09-14T21:07:06.000Z", "transactionIndex": 1, "updatedAt": "2022-09-14T21:07:21.270Z", "value": "8937624422000000000000000", "valueNumber": 8937624.422, "symbol": "XSP", "decimals": 18, "coingeckoID": "xswap-protocol", "fiatValue": 0.00074808, "blockTime": "2022-09-14T21:07:06.000Z"}, {"_id": "6322427db6a7c1802282d707", "from": "xdcbff4d797cc022e785dc0599720097cbdbcbc6740", "to": "xdc33aab4f3e5500c27bb643cf9e503ba0d8939a8c9", "transactionHash": "0xb431b034a3361a527a00a0fc6abfa9fdc4a4e25b336afd02b104784b20a5733f", "address": "xdc36726235dadbdb4658d33e62a249dca7c4b2bc68", "blockHash": "0x0dd45fa5c3a9bcf59572cf2847099f6d412213ad3bbe548b5398d65b87e60c02", "blockNumber": 50344890, "createdAt": "2022-09-14T21:07:09.560Z", "data": "0x00000000000000000000000000000000000000000009dfe3eaa9e54b6790a34b", "timestamp": "2022-09-14T21:06:56.000Z", "transactionIndex": 1, "updatedAt": "2022-09-14T21:07:09.560Z", "value": "11937624422414713485304651", "valueNumber": 11937624.422414713, "symbol": "XSP", "decimals": 18, "coingeckoID": "xswap-protocol", "fiatValue": 0.00074808, "blockTime": "2022-09-14T21:06:56.000Z"}, {"_id": "6322427e63b3788fec9b3ab2", "from": "xdcbff4d797cc022e785dc0599720097cbdbcbc6740", "to": "xdc33aab4f3e5500c27bb643cf9e503ba0d8939a8c9", "transactionHash": "0xb431b034a3361a527a00a0fc6abfa9fdc4a4e25b336afd02b104784b20a5733f", "address": "xdc36726235dadbdb4658d33e62a249dca7c4b2bc68", "blockHash": "0x0dd45fa5c3a9bcf59572cf2847099f6d412213ad3bbe548b5398d65b87e60c02", "blockNumber": 50344890, "createdAt": "2022-09-14T21:07:10.776Z", "data": "0x00000000000000000000000000000000000000000009dfe3eaa9e54b6790a34b", "timestamp": "2022-09-14T21:06:56.000Z", "transactionIndex": 1, "updatedAt": "2022-09-14T21:07:10.776Z", "value": "11937624422414713485304651", "valueNumber": 11937624.422414713, "symbol": "XSP", "decimals": 18, "coingeckoID": "xswap-protocol", "fiatValue": 0.00074808, "blockTime": "2022-09-14T21:06:56.000Z"}, {"_id": "6322424bb6a7c18022826a49", "from": "xdcbff4d797cc022e785dc0599720097cbdbcbc6740", "to": "xdc33aab4f3e5500c27bb643cf9e503ba0d8939a8c9", "transactionHash": "0x029f8a546f379828e75965c461552a252c32e62a1318dfa0fbaf05383f336d54", "address": "xdc36726235dadbdb4658d33e62a249dca7c4b2bc68", "blockHash": "0x7e1a4e318373e216cdc50e64824140a8fab2bcb9d7817b4740424a67773d8615", "blockNumber": 50344865, "createdAt": "2022-09-14T21:06:19.727Z", "data": "0x00000000000000000000000000000000000000000000000859f562d7acc6e9e0", "timestamp": "2022-09-14T21:06:06.000Z", "transactionIndex": 1, "updatedAt": "2022-09-14T21:06:19.727Z", "value": "154056148506802317792", "valueNumber": 154.05614850680232, "symbol": "XSP", "decimals": 18, "coingeckoID": "xswap-protocol", "fiatValue": 0.00074808, "blockTime": "2022-09-14T21:06:06.000Z"}, {"_id": "6322424b63b3788fec9b0d8f", "from": "xdcbff4d797cc022e785dc0599720097cbdbcbc6740", "to": "xdc33aab4f3e5500c27bb643cf9e503ba0d8939a8c9", "transactionHash": "0x029f8a546f379828e75965c461552a252c32e62a1318dfa0fbaf05383f336d54", "address": "xdc36726235dadbdb4658d33e62a249dca7c4b2bc68", "blockHash": "0x7e1a4e318373e216cdc50e64824140a8fab2bcb9d7817b4740424a67773d8615", "blockNumber": 50344865, "createdAt": "2022-09-14T21:06:19.150Z", "data": "0x00000000000000000000000000000000000000000000000859f562d7acc6e9e0", "timestamp": "2022-09-14T21:06:06.000Z", "transactionIndex": 1, "updatedAt": "2022-09-14T21:06:19.150Z", "value": "154056148506802317792", "valueNumber": 154.05614850680232, "symbol": "XSP", "decimals": 18, "coingeckoID": "xswap-protocol", "fiatValue": 0.00074808, "blockTime": "2022-09-14T21:06:06.000Z"}, {"_id": "6322422eb6a7c180228236d5", "from": "xdc33aab4f3e5500c27bb643cf9e503ba0d8939a8c9", "to": "xdc5744459c186499637e6437d870fc3505944466cb", "transactionHash": "0x974cea504af3984bad13c157ff4a80f0e8bdfb15aa6f45fb529e79c8b1b9eb29", "address": "xdc36726235dadbdb4658d33e62a249dca7c4b2bc68", "blockHash": "0xc9051d1aacea6618c913637edf906037a0ee9c6dcf60ba47bbcb1eaf8b8c67b6", "blockNumber": 50344850, "createdAt": "2022-09-14T21:05:50.140Z", "data": "0x000000000000000000000000000000000000000000025faba8a35fc5674c0000", "timestamp": "2022-09-14T21:05:36.000Z", "transactionIndex": 1, "updatedAt": "2022-09-14T21:05:50.140Z", "value": "2869643000000000000000000", "valueNumber": 2869643, "symbol": "XSP", "decimals": 18, "coingeckoID": "xswap-protocol", "fiatValue": 0.00074808, "blockTime": "2022-09-14T21:05:36.000Z"}, {"_id": "6322422e63b3788fec9afe6d", "from": "xdc33aab4f3e5500c27bb643cf9e503ba0d8939a8c9", "to": "xdc5744459c186499637e6437d870fc3505944466cb", "transactionHash": "0x974cea504af3984bad13c157ff4a80f0e8bdfb15aa6f45fb529e79c8b1b9eb29", "address": "xdc36726235dadbdb4658d33e62a249dca7c4b2bc68", "blockHash": "0xc9051d1aacea6618c913637edf906037a0ee9c6dcf60ba47bbcb1eaf8b8c67b6", "blockNumber": 50344850, "createdAt": "2022-09-14T21:05:50.218Z", "data": "0x000000000000000000000000000000000000000000025faba8a35fc5674c0000", "timestamp": "2022-09-14T21:05:36.000Z", "transactionIndex": 1, "updatedAt": "2022-09-14T21:05:50.218Z", "value": "2869643000000000000000000", "valueNumber": 2869643, "symbol": "XSP", "decimals": 18, "coingeckoID": "xswap-protocol", "fiatValue": 0.00074808, "blockTime": "2022-09-14T21:05:36.000Z"}, {"_id": "63223df0b6a7c1802279c3e8", "from": "xdcbff4d797cc022e785dc0599720097cbdbcbc6740", "to": "xdc33aab4f3e5500c27bb643cf9e503ba0d8939a8c9", "transactionHash": "0x1f7cb62cf74ccd0bd6a0592c2199c74d3da9ff95c256428df38bacbdb6d723bf", "address": "xdc36726235dadbdb4658d33e62a249dca7c4b2bc68", "blockHash": "0xcd160ec988876c6e64a587efae1b7164d1bcb68407861666bd3634f7d2766abf", "blockNumber": 50344308, "createdAt": "2022-09-14T20:47:44.094Z", "data": "0x00000000000000000000000000000000000000000000026974f53c6e8ef0a16c", "timestamp": "2022-09-14T20:47:31.000Z", "transactionIndex": 1, "updatedAt": "2022-09-14T20:47:44.094Z", "value": "11390068802202029302124", "valueNumber": 11390.06880220203, "symbol": "XSP", "decimals": 18, "coingeckoID": "xswap-protocol", "fiatValue": 0.00074808, "blockTime": "2022-09-14T20:47:31.000Z"}], "url": "https://xdc.blocksscan.io/api/token-txs/xrc20?holder=xdc33aab4f3e5500c27bb643cf9e503ba0d8939a8c9", "headers": "{\"Date\": \"Wed, 23 Nov 2022 00:15:01 GMT\", \"Content-Type\": \"application/json; charset=utf-8\", \"Content-Length\": \"2782\", \"Connection\": \"keep-alive\", \"Content-Encoding\": \"gzip\", \"ETag\": \"W/\\\"4c91-rOF5azuMJlcpvsiRu2gXaKC82XY\\\"\", \"Vary\": \"Accept-Encoding\", \"x-powered-by\": \"Express, ARR/3.0, ASP.NET\", \"access-control-allow-origin\": \"*\", \"CF-Cache-Status\": \"DYNAMIC\", \"Report-To\": \"{\\\"endpoints\\\":[{\\\"url\\\":\\\"https:\\\\/\\\\/a.nel.cloudflare.com\\\\/report\\\\/v3?s=jIioNz8taGCoTmAEO8A52sQeKjw94YEoU5Az3Ee4mtit3BKfiq5HBR46hUu6rb6Ak9hXugnH0yaxUEmz9ZNwj19u7uiyTb6m8nrX79dyxsv4yGp8kJDcaYupkfYv5M%2BopPTCoQ%3D%3D\\\"}],\\\"group\\\":\\\"cf-nel\\\",\\\"max_age\\\":604800}\", \"NEL\": \"{\\\"success_fraction\\\":0,\\\"report_to\\\":\\\"cf-nel\\\",\\\"max_age\\\":604800}\", \"Server\": \"cloudflare\", \"CF-RAY\": \"76e5b5374fab6462-SJC\", \"alt-svc\": \"h3=\\\":443\\\"; ma=86400, h3-29=\\\":443\\\"; ma=86400\"}"}